EESchema Schematic File Version 4
LIBS:kpp2-cache
EELAYER 26 0
EELAYER END
$Descr A4 11693 8268
encoding utf-8
Sheet 6 6
Title ""
Date ""
Rev ""
Comp ""
Comment1 ""
Comment2 ""
Comment3 ""
Comment4 ""
$EndDescr
$Comp
L FPGA_Xilinx_Artix7:XC7A35T-FTG256 U?
U 3 1 5BF2326C
P 1950 2400
F 0 "U?" H 670 2452 50  0000 R CNN
F 1 "XC7A35T-FTG256" H 670 2361 50  0000 R CNN
F 2 "" H 1950 2400 50  0001 C CNN
F 3 "" H 1950 2400 50  0000 C CNN
	3    1950 2400
	1    0    0    -1  
$EndComp
$Comp
L Device:R R?
U 1 1 5BF23C24
P 5350 2500
F 0 "R?" H 5420 2546 50  0000 L CNN
F 1 "4.7k" H 5420 2455 50  0000 L CNN
F 2 "" V 5280 2500 50  0001 C CNN
F 3 "~" H 5350 2500 50  0001 C CNN
	1    5350 2500
	1    0    0    -1  
$EndComp
Wire Wire Line
	3450 2300 3750 2300
Wire Wire Line
	3750 2300 3750 2400
Wire Wire Line
	3750 2400 3450 2400
$Comp
L power:GND #PWR?
U 1 1 5BF23E35
P 3900 2400
F 0 "#PWR?" H 3900 2150 50  0001 C CNN
F 1 "GND" H 3905 2227 50  0000 C CNN
F 2 "" H 3900 2400 50  0001 C CNN
F 3 "" H 3900 2400 50  0001 C CNN
	1    3900 2400
	1    0    0    -1  
$EndComp
Wire Wire Line
	3750 2300 3900 2300
Wire Wire Line
	3900 2300 3900 2400
Connection ~ 3750 2300
Wire Wire Line
	3450 2100 6200 2100
$Comp
L Device:R R?
U 1 1 5BF24A15
P 5050 2500
F 0 "R?" H 5120 2546 50  0000 L CNN
F 1 "4.7k" H 5120 2455 50  0000 L CNN
F 2 "" V 4980 2500 50  0001 C CNN
F 3 "~" H 5050 2500 50  0001 C CNN
	1    5050 2500
	1    0    0    -1  
$EndComp
Wire Wire Line
	5050 2650 5050 2700
Wire Wire Line
	5050 2700 3450 2700
$Comp
L power:+3.3V #PWR?
U 1 1 5BF24E8B
P 3050 700
F 0 "#PWR?" H 3050 550 50  0001 C CNN
F 1 "+3.3V" H 3065 873 50  0000 C CNN
F 2 "" H 3050 700 50  0001 C CNN
F 3 "" H 3050 700 50  0001 C CNN
	1    3050 700 
	1    0    0    -1  
$EndComp
$Comp
L power:+3.3V #PWR?
U 1 1 5BF24EBF
P 5050 2200
F 0 "#PWR?" H 5050 2050 50  0001 C CNN
F 1 "+3.3V" H 5065 2373 50  0000 C CNN
F 2 "" H 5050 2200 50  0001 C CNN
F 3 "" H 5050 2200 50  0001 C CNN
	1    5050 2200
	1    0    0    -1  
$EndComp
Wire Wire Line
	5050 2350 5050 2200
Connection ~ 5050 2200
Wire Wire Line
	5350 2650 5350 2800
Wire Wire Line
	3450 2800 5350 2800
Wire Wire Line
	5350 2350 5350 2200
Wire Wire Line
	5050 2200 5350 2200
Wire Wire Line
	3450 1900 4250 1900
Wire Wire Line
	4250 1900 4250 1700
Wire Wire Line
	3450 1800 4950 1800
Wire Wire Line
	4250 1700 4950 1700
Wire Wire Line
	3450 1700 4150 1700
Wire Wire Line
	4150 1700 4150 1600
Wire Wire Line
	4150 1600 4950 1600
Wire Wire Line
	4950 1500 4050 1500
Wire Wire Line
	4050 1500 4050 1600
Wire Wire Line
	4050 1600 3450 1600
$Comp
L Device:R R?
U 1 1 5BF75883
P 5650 2500
F 0 "R?" H 5720 2546 50  0000 L CNN
F 1 "4.7k" H 5720 2455 50  0000 L CNN
F 2 "" V 5580 2500 50  0001 C CNN
F 3 "~" H 5650 2500 50  0001 C CNN
	1    5650 2500
	1    0    0    -1  
$EndComp
Wire Wire Line
	5350 2200 5650 2200
Wire Wire Line
	5650 2200 5650 2350
Connection ~ 5350 2200
Wire Wire Line
	5650 2650 5650 3000
Wire Wire Line
	5650 3000 3450 3000
Wire Wire Line
	3450 2200 4750 2200
$Comp
L Switch:SW_SPST SW?
U 1 1 5BF76E5B
P 5350 3250
F 0 "SW?" V 5304 3348 50  0000 L CNN
F 1 "SW_SPST" V 5395 3348 50  0000 L CNN
F 2 "" H 5350 3250 50  0001 C CNN
F 3 "" H 5350 3250 50  0001 C CNN
	1    5350 3250
	0    1    1    0   
$EndComp
Wire Wire Line
	5350 2800 5350 3050
Connection ~ 5350 2800
$Comp
L power:GND #PWR?
U 1 1 5BF773C2
P 5350 3600
F 0 "#PWR?" H 5350 3350 50  0001 C CNN
F 1 "GND" H 5355 3427 50  0000 C CNN
F 2 "" H 5350 3600 50  0001 C CNN
F 3 "" H 5350 3600 50  0001 C CNN
	1    5350 3600
	1    0    0    -1  
$EndComp
Wire Wire Line
	5350 3450 5350 3600
Text HLabel 6200 2100 2    50   Output ~ 0
CCLK
$Comp
L power:GND #PWR?
U 1 1 5C123BEC
P 3900 3900
F 0 "#PWR?" H 3900 3650 50  0001 C CNN
F 1 "GND" H 3905 3727 50  0000 C CNN
F 2 "" H 3900 3900 50  0001 C CNN
F 3 "" H 3900 3900 50  0001 C CNN
	1    3900 3900
	1    0    0    -1  
$EndComp
Wire Wire Line
	3450 3900 3900 3900
Wire Wire Line
	3450 3800 3900 3800
Wire Wire Line
	3900 3800 3900 3900
Connection ~ 3900 3900
Wire Wire Line
	3050 800  3050 700 
Text HLabel 3850 3200 2    50   Input ~ 0
VP_0
Text HLabel 3850 3300 2    50   Input ~ 0
VN_0
Wire Wire Line
	3450 3200 3850 3200
Wire Wire Line
	3850 3300 3450 3300
Wire Wire Line
	3450 3500 3900 3500
Wire Wire Line
	3900 3500 3900 3600
Connection ~ 3900 3800
Wire Wire Line
	3450 3600 3900 3600
Wire Wire Line
	3900 3600 3900 3800
Connection ~ 3900 3600
$Comp
L Device:R R?
U 1 1 5C055A59
P 4750 2450
F 0 "R?" H 4820 2496 50  0000 L CNN
F 1 "330" H 4820 2405 50  0000 L CNN
F 2 "" V 4680 2450 50  0001 C CNN
F 3 "~" H 4750 2450 50  0001 C CNN
	1    4750 2450
	1    0    0    -1  
$EndComp
Wire Wire Line
	4750 2300 4750 2200
Connection ~ 4750 2200
Wire Wire Line
	4750 2200 5050 2200
Wire Wire Line
	4750 2600 3450 2600
Text HLabel 4950 1500 2    50   Input ~ 0
TDI
Text HLabel 4950 1600 2    50   Output ~ 0
TDO
Text HLabel 4950 1700 2    50   Output ~ 0
TMS
Text HLabel 4950 1800 2    50   Output ~ 0
TCK
$EndSCHEMATC
