EESchema Schematic File Version 4
LIBS:kpp2-cache
EELAYER 26 0
EELAYER END
$Descr A4 11693 8268
encoding utf-8
Sheet 5 6
Title ""
Date ""
Rev ""
Comp ""
Comment1 ""
Comment2 ""
Comment3 ""
Comment4 ""
$EndDescr
$Comp
L Interface_USB:FT2232H U?
U 1 1 5BF5BEF8
P 6350 3700
F 0 "U?" H 6350 6078 50  0000 C CNN
F 1 "FT2232H" H 6350 5987 50  0000 C CNN
F 2 "" H 6350 3700 50  0001 C CNN
F 3 "http://www.ftdichip.com/Products/ICs/FT2232H.html" H 6350 3700 50  0001 C CNN
	1    6350 3700
	1    0    0    -1  
$EndComp
$Comp
L Memory_EEPROM:93CxxA U?
U 1 1 5BF5BFD3
P 3500 4800
F 0 "U?" H 3500 5278 50  0000 C CNN
F 1 "93CxxA" H 3500 5187 50  0000 C CNN
F 2 "" H 3500 4800 50  0001 C CNN
F 3 "http://ww1.microchip.com/downloads/en/DeviceDoc/20001749K.pdf" H 3500 4800 50  0001 C CNN
	1    3500 4800
	1    0    0    -1  
$EndComp
Wire Wire Line
	2500 2800 5150 2800
$Comp
L power:+3.3V #PWR?
U 1 1 5BF611C7
P 4750 3300
F 0 "#PWR?" H 4750 3150 50  0001 C CNN
F 1 "+3.3V" V 4765 3428 50  0000 L CNN
F 2 "" H 4750 3300 50  0001 C CNN
F 3 "" H 4750 3300 50  0001 C CNN
	1    4750 3300
	0    -1   -1   0   
$EndComp
$Comp
L Device:R R?
U 1 1 5BF612AA
P 4650 3100
F 0 "R?" V 4550 3100 50  0000 C CNN
F 1 "12k" V 4650 3100 50  0000 C CNN
F 2 "" V 4580 3100 50  0001 C CNN
F 3 "~" H 4650 3100 50  0001 C CNN
	1    4650 3100
	0    1    1    0   
$EndComp
$Comp
L Device:R R?
U 1 1 5BF6130D
P 4950 3300
F 0 "R?" V 4850 3300 50  0000 C CNN
F 1 "1k" V 4950 3300 50  0000 C CNN
F 2 "" V 4880 3300 50  0001 C CNN
F 3 "~" H 4950 3300 50  0001 C CNN
	1    4950 3300
	0    1    1    0   
$EndComp
Wire Wire Line
	4750 3300 4800 3300
Wire Wire Line
	5100 3300 5150 3300
Wire Wire Line
	5150 3100 4800 3100
$Comp
L power:GND #PWR?
U 1 1 5BF6141C
P 4250 3100
F 0 "#PWR?" H 4250 2850 50  0001 C CNN
F 1 "GND" V 4255 2972 50  0000 R CNN
F 2 "" H 4250 3100 50  0001 C CNN
F 3 "" H 4250 3100 50  0001 C CNN
	1    4250 3100
	0    1    1    0   
$EndComp
Wire Wire Line
	4250 3100 4500 3100
Wire Wire Line
	6550 1500 6550 1350
Wire Wire Line
	6850 1350 6850 1500
Wire Wire Line
	6750 1500 6750 1350
Connection ~ 6750 1350
Wire Wire Line
	6750 1350 6850 1350
Wire Wire Line
	6650 1500 6650 1350
Wire Wire Line
	6550 1350 6650 1350
Connection ~ 6650 1350
Wire Wire Line
	6650 1350 6750 1350
Wire Wire Line
	6350 1500 6350 1350
Wire Wire Line
	6350 1350 6250 1350
Wire Wire Line
	6150 1350 6150 1500
Wire Wire Line
	6250 1500 6250 1350
Connection ~ 6250 1350
Wire Wire Line
	6250 1350 6150 1350
Wire Wire Line
	4700 1350 4700 2000
Wire Wire Line
	4700 2000 5150 2000
Connection ~ 6150 1350
Wire Wire Line
	6150 1350 4700 1350
$Comp
L Device:C C?
U 1 1 5BF61DA8
P 4700 2200
F 0 "C?" H 4815 2246 50  0000 L CNN
F 1 "3.3uF" H 4815 2155 50  0000 L CNN
F 2 "" H 4738 2050 50  0001 C CNN
F 3 "~" H 4700 2200 50  0001 C CNN
	1    4700 2200
	1    0    0    -1  
$EndComp
$Comp
L power:GND #PWR?
U 1 1 5BF61DF0
P 4700 2450
F 0 "#PWR?" H 4700 2200 50  0001 C CNN
F 1 "GND" H 4705 2277 50  0000 C CNN
F 2 "" H 4700 2450 50  0001 C CNN
F 3 "" H 4700 2450 50  0001 C CNN
	1    4700 2450
	1    0    0    -1  
$EndComp
Wire Wire Line
	4700 2350 4700 2450
Wire Wire Line
	4700 2050 4700 2000
Connection ~ 4700 2000
Wire Wire Line
	2900 4400 2900 4700
Wire Wire Line
	2900 4700 3100 4700
Wire Wire Line
	3900 4700 3900 4500
Wire Wire Line
	3900 4800 3950 4800
Wire Wire Line
	3950 4800 3950 4600
$Comp
L Device:R R?
U 1 1 5BF635FE
P 4250 4700
F 0 "R?" V 4150 4700 50  0000 C CNN
F 1 "2k" V 4250 4700 50  0000 C CNN
F 2 "" V 4180 4700 50  0001 C CNN
F 3 "~" H 4250 4700 50  0001 C CNN
	1    4250 4700
	0    1    1    0   
$EndComp
Wire Wire Line
	2900 4400 4200 4400
Wire Wire Line
	3900 4500 4400 4500
$Comp
L power:GND #PWR?
U 1 1 5BF65F08
P 3500 5150
F 0 "#PWR?" H 3500 4900 50  0001 C CNN
F 1 "GND" H 3505 4977 50  0000 C CNN
F 2 "" H 3500 5150 50  0001 C CNN
F 3 "" H 3500 5150 50  0001 C CNN
	1    3500 5150
	1    0    0    -1  
$EndComp
Wire Wire Line
	3500 5150 3500 5100
$Comp
L Device:R R?
U 1 1 5BF6758E
P 4000 4000
F 0 "R?" V 3900 4000 50  0000 C CNN
F 1 "10k" V 4000 4000 50  0000 C CNN
F 2 "" V 3930 4000 50  0001 C CNN
F 3 "~" H 4000 4000 50  0001 C CNN
	1    4000 4000
	-1   0    0    1   
$EndComp
$Comp
L Device:R R?
U 1 1 5BF67D90
P 4200 4000
F 0 "R?" V 4100 4000 50  0000 C CNN
F 1 "10k" V 4200 4000 50  0000 C CNN
F 2 "" V 4130 4000 50  0001 C CNN
F 3 "~" H 4200 4000 50  0001 C CNN
	1    4200 4000
	-1   0    0    1   
$EndComp
$Comp
L Device:R R?
U 1 1 5BF67DC0
P 4400 4000
F 0 "R?" V 4300 4000 50  0000 C CNN
F 1 "10k" V 4400 4000 50  0000 C CNN
F 2 "" V 4330 4000 50  0001 C CNN
F 3 "~" H 4400 4000 50  0001 C CNN
	1    4400 4000
	-1   0    0    1   
$EndComp
Wire Wire Line
	3950 4600 4450 4600
Wire Wire Line
	4000 4700 4100 4700
Wire Wire Line
	4000 4700 4000 4150
Wire Wire Line
	4400 4700 4450 4700
Wire Wire Line
	4450 4700 4450 4600
Connection ~ 4450 4600
$Comp
L power:+3.3V #PWR?
U 1 1 5BF695F5
P 4200 3750
F 0 "#PWR?" H 4200 3600 50  0001 C CNN
F 1 "+3.3V" H 4215 3923 50  0000 C CNN
F 2 "" H 4200 3750 50  0001 C CNN
F 3 "" H 4200 3750 50  0001 C CNN
	1    4200 3750
	1    0    0    -1  
$EndComp
Wire Wire Line
	4000 3850 4000 3800
Wire Wire Line
	4000 3800 4200 3800
Wire Wire Line
	4400 3800 4400 3850
Wire Wire Line
	4200 3850 4200 3800
Connection ~ 4200 3800
Wire Wire Line
	4200 3800 4400 3800
Wire Wire Line
	4200 3750 4200 3800
Wire Wire Line
	4200 4150 4200 4400
Connection ~ 4200 4400
Wire Wire Line
	4400 4150 4400 4500
Connection ~ 4400 4500
$Comp
L Device:Crystal Y?
U 1 1 5BF6CCF1
P 4750 5100
F 0 "Y?" V 4704 5231 50  0000 L CNN
F 1 "12 MHz" V 4795 5231 50  0000 L CNN
F 2 "" H 4750 5100 50  0001 C CNN
F 3 "~" H 4750 5100 50  0001 C CNN
	1    4750 5100
	0    1    1    0   
$EndComp
Wire Wire Line
	4750 4950 4750 4900
Wire Wire Line
	4750 4900 5150 4900
Wire Wire Line
	5150 5300 4750 5300
Wire Wire Line
	4750 5300 4750 5250
$Comp
L Device:C_Small C?
U 1 1 5BF6E8E7
P 4600 4900
F 0 "C?" V 4371 4900 50  0000 C CNN
F 1 "27pF" V 4462 4900 50  0000 C CNN
F 2 "" H 4600 4900 50  0001 C CNN
F 3 "~" H 4600 4900 50  0001 C CNN
	1    4600 4900
	0    1    1    0   
$EndComp
$Comp
L Device:C_Small C?
U 1 1 5BF6E949
P 4500 5300
F 0 "C?" V 4271 5300 50  0000 C CNN
F 1 "27pF" V 4362 5300 50  0000 C CNN
F 2 "" H 4500 5300 50  0001 C CNN
F 3 "~" H 4500 5300 50  0001 C CNN
	1    4500 5300
	0    1    1    0   
$EndComp
Wire Wire Line
	4750 5300 4600 5300
Connection ~ 4750 5300
Wire Wire Line
	4750 4900 4700 4900
Connection ~ 4750 4900
$Comp
L power:GND #PWR?
U 1 1 5BF70781
P 4200 5300
F 0 "#PWR?" H 4200 5050 50  0001 C CNN
F 1 "GND" H 4205 5127 50  0000 C CNN
F 2 "" H 4200 5300 50  0001 C CNN
F 3 "" H 4200 5300 50  0001 C CNN
	1    4200 5300
	1    0    0    -1  
$EndComp
Wire Wire Line
	4200 5300 4400 5300
Wire Wire Line
	4200 5000 4450 5000
Wire Wire Line
	4450 5000 4450 4900
Wire Wire Line
	4450 4900 4500 4900
Wire Wire Line
	4200 5000 4200 5300
Wire Wire Line
	4200 4400 5150 4400
Wire Wire Line
	4400 4500 5150 4500
Wire Wire Line
	4450 4600 5150 4600
Connection ~ 4200 5300
Wire Wire Line
	4000 4700 4000 4900
Wire Wire Line
	4000 4900 3900 4900
Connection ~ 4000 4700
$Comp
L Regulator_Linear:AMS1117-3.3 U?
U 1 1 5BF7C3F2
P 3800 1800
F 0 "U?" H 3800 2042 50  0000 C CNN
F 1 "AMS1117-3.3" H 3800 1951 50  0000 C CNN
F 2 "Package_TO_SOT_SMD:SOT-223-3_TabPin2" H 3800 2000 50  0001 C CNN
F 3 "http://www.advanced-monolithic.com/pdf/ds1117.pdf" H 3900 1550 50  0001 C CNN
	1    3800 1800
	1    0    0    -1  
$EndComp
Wire Wire Line
	4100 1800 4200 1800
$Comp
L power:GND #PWR?
U 1 1 5BF7DAA4
P 3800 2200
F 0 "#PWR?" H 3800 1950 50  0001 C CNN
F 1 "GND" H 3805 2027 50  0000 C CNN
F 2 "" H 3800 2200 50  0001 C CNN
F 3 "" H 3800 2200 50  0001 C CNN
	1    3800 2200
	1    0    0    -1  
$EndComp
Wire Wire Line
	3800 2200 3800 2100
$Comp
L Device:C C?
U 1 1 5BF7EE98
P 4200 1950
F 0 "C?" H 4315 1996 50  0000 L CNN
F 1 "1uF" H 4315 1905 50  0000 L CNN
F 2 "" H 4238 1800 50  0001 C CNN
F 3 "~" H 4200 1950 50  0001 C CNN
	1    4200 1950
	1    0    0    -1  
$EndComp
Connection ~ 4200 1800
Wire Wire Line
	4200 1800 5150 1800
$Comp
L Device:C C?
U 1 1 5BF7EED6
P 3250 1950
F 0 "C?" H 3365 1996 50  0000 L CNN
F 1 "1uF" H 3365 1905 50  0000 L CNN
F 2 "" H 3288 1800 50  0001 C CNN
F 3 "~" H 3250 1950 50  0001 C CNN
	1    3250 1950
	1    0    0    -1  
$EndComp
Connection ~ 3250 1800
Wire Wire Line
	3250 1800 3500 1800
$Comp
L power:GND #PWR?
U 1 1 5BF80469
P 4200 2200
F 0 "#PWR?" H 4200 1950 50  0001 C CNN
F 1 "GND" H 4205 2027 50  0000 C CNN
F 2 "" H 4200 2200 50  0001 C CNN
F 3 "" H 4200 2200 50  0001 C CNN
	1    4200 2200
	1    0    0    -1  
$EndComp
$Comp
L power:GND #PWR?
U 1 1 5BF80496
P 3250 2200
F 0 "#PWR?" H 3250 1950 50  0001 C CNN
F 1 "GND" H 3255 2027 50  0000 C CNN
F 2 "" H 3250 2200 50  0001 C CNN
F 3 "" H 3250 2200 50  0001 C CNN
	1    3250 2200
	1    0    0    -1  
$EndComp
Wire Wire Line
	3250 2200 3250 2100
Wire Wire Line
	4200 2200 4200 2100
$Comp
L Device:C C?
U 1 1 5BF83809
P 4800 1000
F 0 "C?" H 4650 1100 50  0000 L CNN
F 1 "4.7uF" H 4600 900 50  0000 L CNN
F 2 "" H 4838 850 50  0001 C CNN
F 3 "~" H 4800 1000 50  0001 C CNN
	1    4800 1000
	1    0    0    -1  
$EndComp
$Comp
L Device:C C?
U 1 1 5BF83847
P 5300 1000
F 0 "C?" H 5200 1100 50  0000 L CNN
F 1 "100nF" H 5100 900 50  0000 L CNN
F 2 "" H 5338 850 50  0001 C CNN
F 3 "~" H 5300 1000 50  0001 C CNN
	1    5300 1000
	1    0    0    -1  
$EndComp
$Comp
L Device:C C?
U 1 1 5BF8388D
P 5550 1000
F 0 "C?" H 5450 1100 50  0000 L CNN
F 1 "100nF" H 5400 900 50  0000 L CNN
F 2 "" H 5588 850 50  0001 C CNN
F 3 "~" H 5550 1000 50  0001 C CNN
	1    5550 1000
	1    0    0    -1  
$EndComp
$Comp
L Device:C C?
U 1 1 5BF839AA
P 5050 1000
F 0 "C?" H 4900 1100 50  0000 L CNN
F 1 "4.7uF" H 4800 900 50  0000 L CNN
F 2 "" H 5088 850 50  0001 C CNN
F 3 "~" H 5050 1000 50  0001 C CNN
	1    5050 1000
	1    0    0    -1  
$EndComp
$Comp
L power:GND #PWR?
U 1 1 5BF83E1C
P 5050 1200
F 0 "#PWR?" H 5050 950 50  0001 C CNN
F 1 "GND" H 5055 1027 50  0000 C CNN
F 2 "" H 5050 1200 50  0001 C CNN
F 3 "" H 5050 1200 50  0001 C CNN
	1    5050 1200
	1    0    0    -1  
$EndComp
Wire Wire Line
	4800 1150 4800 1200
Wire Wire Line
	4800 1200 5050 1200
Wire Wire Line
	5050 1200 5050 1150
Connection ~ 5050 1200
Wire Wire Line
	5050 1200 5300 1200
Wire Wire Line
	5300 1200 5300 1150
Wire Wire Line
	5300 1200 5550 1200
Wire Wire Line
	5550 1200 5550 1150
Connection ~ 5300 1200
Wire Wire Line
	5950 1500 5950 700 
Wire Wire Line
	5950 700  5550 700 
Wire Wire Line
	5050 700  5050 850 
Wire Wire Line
	5550 700  5550 850 
Connection ~ 5550 700 
Wire Wire Line
	5550 700  5050 700 
Wire Wire Line
	5300 850  5300 800 
Wire Wire Line
	5300 800  5850 800 
Wire Wire Line
	5850 800  5850 1500
Wire Wire Line
	5300 800  4800 800 
Wire Wire Line
	4800 800  4800 850 
Connection ~ 5300 800 
$Comp
L power:+3.3V #PWR?
U 1 1 5BF93ED3
P 4250 800
F 0 "#PWR?" H 4250 650 50  0001 C CNN
F 1 "+3.3V" V 4265 928 50  0000 L CNN
F 2 "" H 4250 800 50  0001 C CNN
F 3 "" H 4250 800 50  0001 C CNN
	1    4250 800 
	0    -1   -1   0   
$EndComp
$Comp
L power:+3.3V #PWR?
U 1 1 5BF94058
P 4250 700
F 0 "#PWR?" H 4250 550 50  0001 C CNN
F 1 "+3.3V" V 4265 828 50  0000 L CNN
F 2 "" H 4250 700 50  0001 C CNN
F 3 "" H 4250 700 50  0001 C CNN
	1    4250 700 
	0    -1   -1   0   
$EndComp
$Comp
L Device:L L?
U 1 1 5BF940B9
P 4500 700
F 0 "L?" V 4690 700 50  0000 C CNN
F 1 "L" V 4599 700 50  0000 C CNN
F 2 "" H 4500 700 50  0001 C CNN
F 3 "~" H 4500 700 50  0001 C CNN
	1    4500 700 
	0    -1   -1   0   
$EndComp
$Comp
L Device:L L?
U 1 1 5BF94158
P 4500 800
F 0 "L?" V 4690 800 50  0000 C CNN
F 1 "L" V 4599 800 50  0000 C CNN
F 2 "" H 4500 800 50  0001 C CNN
F 3 "~" H 4500 800 50  0001 C CNN
	1    4500 800 
	0    -1   -1   0   
$EndComp
Wire Wire Line
	4250 700  4350 700 
Wire Wire Line
	4350 800  4250 800 
Wire Wire Line
	4650 700  5050 700 
Connection ~ 5050 700 
Wire Wire Line
	4650 800  4800 800 
Connection ~ 4800 800 
$Comp
L power:+3.3V #PWR?
U 1 1 5BF9CF3D
P 6750 1250
F 0 "#PWR?" H 6750 1100 50  0001 C CNN
F 1 "+3.3V" H 6765 1423 50  0000 C CNN
F 2 "" H 6750 1250 50  0001 C CNN
F 3 "" H 6750 1250 50  0001 C CNN
	1    6750 1250
	1    0    0    -1  
$EndComp
Wire Wire Line
	6750 1250 6750 1350
$Comp
L Device:LED D?
U 1 1 5BFA1C73
P 8400 4650
F 0 "D?" V 8438 4533 50  0000 R CNN
F 1 "LED" V 8347 4533 50  0000 R CNN
F 2 "" H 8400 4650 50  0001 C CNN
F 3 "~" H 8400 4650 50  0001 C CNN
	1    8400 4650
	0    -1   -1   0   
$EndComp
$Comp
L Device:LED D?
U 1 1 5BFA1DD0
P 8700 4650
F 0 "D?" V 8738 4533 50  0000 R CNN
F 1 "LED" V 8647 4533 50  0000 R CNN
F 2 "" H 8700 4650 50  0001 C CNN
F 3 "~" H 8700 4650 50  0001 C CNN
	1    8700 4650
	0    -1   -1   0   
$EndComp
Wire Wire Line
	8400 4800 7550 4800
Wire Wire Line
	7550 4900 8700 4900
$Comp
L Device:R R?
U 1 1 5BFA9522
P 8400 4350
F 0 "R?" H 8470 4396 50  0000 L CNN
F 1 "330" H 8470 4305 50  0000 L CNN
F 2 "" V 8330 4350 50  0001 C CNN
F 3 "~" H 8400 4350 50  0001 C CNN
	1    8400 4350
	1    0    0    -1  
$EndComp
$Comp
L Device:R R?
U 1 1 5BFA959C
P 8700 4350
F 0 "R?" H 8770 4396 50  0000 L CNN
F 1 "330" H 8770 4305 50  0000 L CNN
F 2 "" V 8630 4350 50  0001 C CNN
F 3 "~" H 8700 4350 50  0001 C CNN
	1    8700 4350
	1    0    0    -1  
$EndComp
Wire Wire Line
	8400 4200 8400 4100
Wire Wire Line
	8400 4100 8550 4100
Wire Wire Line
	8700 4100 8700 4200
$Comp
L power:+3.3V #PWR?
U 1 1 5BFB1130
P 8550 4100
F 0 "#PWR?" H 8550 3950 50  0001 C CNN
F 1 "+3.3V" H 8565 4273 50  0000 C CNN
F 2 "" H 8550 4100 50  0001 C CNN
F 3 "" H 8550 4100 50  0001 C CNN
	1    8550 4100
	1    0    0    -1  
$EndComp
Connection ~ 8550 4100
Wire Wire Line
	8550 4100 8700 4100
Wire Wire Line
	8700 4800 8700 4900
Text HLabel 7550 1800 2    50   BiDi ~ 0
TCK
Text HLabel 7550 1900 2    50   BiDi ~ 0
TDI
Text HLabel 7550 2000 2    50   BiDi ~ 0
TDO
Text HLabel 7550 2100 2    50   BiDi ~ 0
TMS
NoConn ~ 7550 4000
NoConn ~ 7550 4100
NoConn ~ 7550 4200
NoConn ~ 7550 4300
NoConn ~ 7550 4500
NoConn ~ 7550 4600
NoConn ~ 7550 4700
NoConn ~ 7550 5000
NoConn ~ 7550 5100
NoConn ~ 7550 5200
NoConn ~ 7550 3800
NoConn ~ 7550 2200
NoConn ~ 7550 2300
NoConn ~ 7550 2400
NoConn ~ 7550 2500
NoConn ~ 7550 2700
NoConn ~ 7550 2800
NoConn ~ 7550 2900
NoConn ~ 7550 3000
NoConn ~ 7550 3100
NoConn ~ 7550 3200
NoConn ~ 7550 3300
NoConn ~ 7550 3400
NoConn ~ 7550 3900
Text HLabel 7800 3600 2    50   Output ~ 0
TXD
Text HLabel 7800 3700 2    50   Input ~ 0
RXD
Wire Wire Line
	7550 3600 7800 3600
Wire Wire Line
	7800 3700 7550 3700
Wire Wire Line
	5750 5900 5750 6000
Wire Wire Line
	6650 6000 6650 5900
Wire Wire Line
	6550 5900 6550 6000
Connection ~ 6550 6000
Wire Wire Line
	6550 6000 6650 6000
Wire Wire Line
	6450 5900 6450 6000
Connection ~ 6450 6000
Wire Wire Line
	6450 6000 6550 6000
Wire Wire Line
	6350 5900 6350 6000
Connection ~ 6350 6000
Wire Wire Line
	6350 6000 6450 6000
Wire Wire Line
	6250 5900 6250 6000
Connection ~ 6250 6000
Wire Wire Line
	6250 6000 6350 6000
Wire Wire Line
	6150 5900 6150 6000
Connection ~ 6150 6000
Wire Wire Line
	6150 6000 6250 6000
Wire Wire Line
	6050 5900 6050 6000
Connection ~ 6050 6000
Wire Wire Line
	6050 6000 6150 6000
Wire Wire Line
	5950 5900 5950 6000
Wire Wire Line
	5750 6000 5950 6000
Connection ~ 5950 6000
Wire Wire Line
	5950 6000 6050 6000
$Comp
L power:GND #PWR?
U 1 1 5C023A6D
P 5950 6050
F 0 "#PWR?" H 5950 5800 50  0001 C CNN
F 1 "GND" H 5955 5877 50  0000 C CNN
F 2 "" H 5950 6050 50  0001 C CNN
F 3 "" H 5950 6050 50  0001 C CNN
	1    5950 6050
	1    0    0    -1  
$EndComp
Wire Wire Line
	5950 6050 5950 6000
$Comp
L power:+5V #PWR?
U 1 1 5C0286BC
P 2650 1800
F 0 "#PWR?" H 2650 1650 50  0001 C CNN
F 1 "+5V" H 2665 1973 50  0000 C CNN
F 2 "" H 2650 1800 50  0001 C CNN
F 3 "" H 2650 1800 50  0001 C CNN
	1    2650 1800
	1    0    0    -1  
$EndComp
Wire Wire Line
	2650 1800 3250 1800
Connection ~ 2650 1800
Wire Wire Line
	2500 2900 2500 2800
Wire Wire Line
	2400 2850 2650 2850
Wire Wire Line
	2650 2850 2650 2900
Wire Wire Line
	2650 2900 5150 2900
Wire Wire Line
	2650 1800 2650 2100
$Comp
L Connector:USB_B J?
U 1 1 5CF7B11F
P 1450 2300
F 0 "J?" H 1505 2767 50  0000 C CNN
F 1 "USB_B" H 1505 2676 50  0000 C CNN
F 2 "" H 1600 2250 50  0001 C CNN
F 3 " ~" H 1600 2250 50  0001 C CNN
	1    1450 2300
	1    0    0    -1  
$EndComp
Wire Wire Line
	2400 2300 1750 2300
Wire Wire Line
	2400 2300 2400 2850
Wire Wire Line
	1750 2400 2200 2400
Wire Wire Line
	2200 2400 2200 2900
Wire Wire Line
	2200 2900 2500 2900
Wire Wire Line
	1350 2700 1400 2700
Wire Wire Line
	1400 2700 1400 2850
Connection ~ 1400 2700
Wire Wire Line
	1400 2700 1450 2700
$Comp
L power:GND #PWR?
U 1 1 5CF8D30C
P 1400 2850
F 0 "#PWR?" H 1400 2600 50  0001 C CNN
F 1 "GND" H 1405 2677 50  0000 C CNN
F 2 "" H 1400 2850 50  0001 C CNN
F 3 "" H 1400 2850 50  0001 C CNN
	1    1400 2850
	1    0    0    -1  
$EndComp
$Comp
L Device:Fuse_Small F?
U 1 1 5CF8D5B8
P 2050 2100
F 0 "F?" H 2050 2285 50  0000 C CNN
F 1 "Fuse_Small" H 2050 2194 50  0000 C CNN
F 2 "" H 2050 2100 50  0001 C CNN
F 3 "~" H 2050 2100 50  0001 C CNN
	1    2050 2100
	1    0    0    -1  
$EndComp
Wire Wire Line
	1950 2100 1750 2100
Wire Wire Line
	2150 2100 2650 2100
$EndSCHEMATC
