EESchema Schematic File Version 4
LIBS:kpp2-cache
EELAYER 26 0
EELAYER END
$Descr A4 11693 8268
encoding utf-8
Sheet 3 6
Title ""
Date ""
Rev ""
Comp ""
Comment1 ""
Comment2 ""
Comment3 ""
Comment4 ""
$EndDescr
$Comp
L FPGA_Xilinx_Artix7:XC7A35T-FTG256 U?
U 1 1 5BF24A88
P 4350 4000
F 0 "U?" H 4350 1026 50  0000 C CNN
F 1 "XC7A35T-FTG256" H 4350 935 50  0000 C CNN
F 2 "" H 4350 4000 50  0001 C CNN
F 3 "" H 4350 4000 50  0000 C CNN
	1    4350 4000
	1    0    0    -1  
$EndComp
$Comp
L power:+3.3V #PWR?
U 1 1 5BF25043
P 5450 800
F 0 "#PWR?" H 5450 650 50  0001 C CNN
F 1 "+3.3V" H 5465 973 50  0000 C CNN
F 2 "" H 5450 800 50  0001 C CNN
F 3 "" H 5450 800 50  0001 C CNN
	1    5450 800 
	1    0    0    -1  
$EndComp
$Comp
L power:+3.3V #PWR?
U 1 1 5BF2507D
P 3250 800
F 0 "#PWR?" H 3250 650 50  0001 C CNN
F 1 "+3.3V" H 3265 973 50  0000 C CNN
F 2 "" H 3250 800 50  0001 C CNN
F 3 "" H 3250 800 50  0001 C CNN
	1    3250 800 
	1    0    0    -1  
$EndComp
Wire Wire Line
	3250 800  3250 850 
Wire Wire Line
	3150 1100 3150 850 
Wire Wire Line
	3150 850  3250 850 
Connection ~ 3250 850 
Wire Wire Line
	3250 850  3250 1100
Wire Wire Line
	2750 850  2750 1100
Connection ~ 3150 850 
Wire Wire Line
	2850 1100 2850 850 
Connection ~ 2850 850 
Wire Wire Line
	2850 850  2750 850 
Wire Wire Line
	2950 850  2950 1100
Wire Wire Line
	2850 850  2950 850 
Connection ~ 2950 850 
Wire Wire Line
	2950 850  3050 850 
Wire Wire Line
	3050 850  3050 1100
Connection ~ 3050 850 
Wire Wire Line
	3050 850  3150 850 
Wire Wire Line
	5450 800  5450 850 
Wire Wire Line
	5450 850  5550 850 
Wire Wire Line
	5950 850  5950 1100
Connection ~ 5450 850 
Wire Wire Line
	5450 850  5450 1100
Wire Wire Line
	5850 1100 5850 850 
Connection ~ 5850 850 
Wire Wire Line
	5850 850  5950 850 
Wire Wire Line
	5750 850  5750 1100
Connection ~ 5750 850 
Wire Wire Line
	5750 850  5850 850 
Wire Wire Line
	5650 1100 5650 850 
Connection ~ 5650 850 
Wire Wire Line
	5650 850  5750 850 
Wire Wire Line
	5550 1100 5550 850 
Connection ~ 5550 850 
Wire Wire Line
	5550 850  5650 850 
Text HLabel 1800 2000 0    50   BiDi ~ 0
D
Text HLabel 1800 2100 0    50   BiDi ~ 0
Q
Text HLabel 1800 3000 0    50   BiDi ~ 0
~S
Text HLabel 1800 2200 0    50   BiDi ~ 0
~W
Text HLabel 1800 2300 0    50   BiDi ~ 0
~HOLD
Wire Wire Line
	1800 2000 2350 2000
Wire Wire Line
	2350 2100 1800 2100
Wire Wire Line
	1800 2300 2350 2300
Wire Wire Line
	2350 2200 1800 2200
$Comp
L Oscillator:XO53 X?
U 1 1 5C12719C
P 9600 4200
F 0 "X?" H 9259 4246 50  0000 R CNN
F 1 "XO53" H 9259 4155 50  0000 R CNN
F 2 "Oscillator:Oscillator_SMD_EuroQuartz_XO53-4Pin_5.0x3.2mm" H 10300 3850 50  0001 C CNN
F 3 "http://cdn-reichelt.de/documents/datenblatt/B400/XO53.pdf" H 9500 4200 50  0001 C CNN
	1    9600 4200
	-1   0    0    -1  
$EndComp
$Comp
L power:GND #PWR?
U 1 1 5C1272B6
P 9600 4600
F 0 "#PWR?" H 9600 4350 50  0001 C CNN
F 1 "GND" H 9605 4427 50  0000 C CNN
F 2 "" H 9600 4600 50  0001 C CNN
F 3 "" H 9600 4600 50  0001 C CNN
	1    9600 4600
	1    0    0    -1  
$EndComp
Wire Wire Line
	9600 4500 9600 4550
$Comp
L power:+3.3V #PWR?
U 1 1 5C127DBA
P 9600 3800
F 0 "#PWR?" H 9600 3650 50  0001 C CNN
F 1 "+3.3V" H 9615 3973 50  0000 C CNN
F 2 "" H 9600 3800 50  0001 C CNN
F 3 "" H 9600 3800 50  0001 C CNN
	1    9600 3800
	1    0    0    -1  
$EndComp
Wire Wire Line
	9600 3800 9600 3850
Wire Wire Line
	9600 3850 10000 3850
Wire Wire Line
	10000 3850 10000 4200
Wire Wire Line
	10000 4200 9900 4200
Connection ~ 9600 3850
Wire Wire Line
	9600 3850 9600 3900
$Comp
L Device:C C?
U 1 1 5C128628
P 10400 4200
F 0 "C?" H 10515 4246 50  0000 L CNN
F 1 "0.01uF" H 10515 4155 50  0000 L CNN
F 2 "" H 10438 4050 50  0001 C CNN
F 3 "~" H 10400 4200 50  0001 C CNN
	1    10400 4200
	1    0    0    -1  
$EndComp
Wire Wire Line
	10400 4050 10400 3850
Wire Wire Line
	10400 3850 10000 3850
Connection ~ 10000 3850
Wire Wire Line
	10400 4350 10400 4550
Wire Wire Line
	10400 4550 9600 4550
Connection ~ 9600 4550
Wire Wire Line
	9600 4550 9600 4600
$Comp
L Device:LED_RGB D?
U 1 1 5C1291AD
P 8550 1000
F 0 "D?" H 8550 1497 50  0000 C CNN
F 1 "LED_RGB" H 8550 1406 50  0000 C CNN
F 2 "" H 8550 950 50  0001 C CNN
F 3 "~" H 8550 950 50  0001 C CNN
	1    8550 1000
	1    0    0    -1  
$EndComp
$Comp
L Device:LED_RGB D?
U 1 1 5C129243
P 8550 1850
F 0 "D?" H 8550 2347 50  0000 C CNN
F 1 "LED_RGB" H 8550 2256 50  0000 C CNN
F 2 "" H 8550 1800 50  0001 C CNN
F 3 "~" H 8550 1800 50  0001 C CNN
	1    8550 1850
	1    0    0    -1  
$EndComp
$Comp
L power:+3.3V #PWR?
U 1 1 5C12933F
P 9750 700
F 0 "#PWR?" H 9750 550 50  0001 C CNN
F 1 "+3.3V" H 9765 873 50  0000 C CNN
F 2 "" H 9750 700 50  0001 C CNN
F 3 "" H 9750 700 50  0001 C CNN
	1    9750 700 
	1    0    0    -1  
$EndComp
Wire Wire Line
	9550 800  9750 800 
Wire Wire Line
	9750 800  9750 900 
Wire Wire Line
	9550 900  9750 900 
Connection ~ 9750 900 
Wire Wire Line
	9750 900  9750 1000
Wire Wire Line
	9550 1000 9750 1000
Connection ~ 9750 1000
Wire Wire Line
	9750 1000 9750 1100
Wire Wire Line
	9550 1100 9750 1100
Connection ~ 9750 1100
Wire Wire Line
	9750 1100 9750 1200
Wire Wire Line
	9550 1200 9750 1200
Connection ~ 9750 1200
Wire Wire Line
	9750 1200 9750 1300
Wire Wire Line
	9550 1300 9750 1300
Wire Wire Line
	6350 2300 6650 2300
Wire Wire Line
	6350 2400 6700 2400
$Comp
L Device:LED D?
U 1 1 5C145B4D
P 7600 2500
F 0 "D?" H 7750 2450 50  0000 C CNN
F 1 "LED" H 7350 2450 50  0000 C CNN
F 2 "" H 7600 2500 50  0001 C CNN
F 3 "~" H 7600 2500 50  0001 C CNN
	1    7600 2500
	-1   0    0    1   
$EndComp
$Comp
L Device:LED D?
U 1 1 5C145D86
P 7600 2600
F 0 "D?" H 7750 2550 50  0000 C CNN
F 1 "LED" H 7350 2550 50  0000 C CNN
F 2 "" H 7600 2600 50  0001 C CNN
F 3 "~" H 7600 2600 50  0001 C CNN
	1    7600 2600
	-1   0    0    1   
$EndComp
$Comp
L Device:LED D?
U 1 1 5C145DAA
P 7600 2700
F 0 "D?" H 7750 2650 50  0000 C CNN
F 1 "LED" H 7350 2650 50  0000 C CNN
F 2 "" H 7600 2700 50  0001 C CNN
F 3 "~" H 7600 2700 50  0001 C CNN
	1    7600 2700
	-1   0    0    1   
$EndComp
$Comp
L Device:LED D?
U 1 1 5C145DD0
P 7600 2800
F 0 "D?" H 7750 2750 50  0000 C CNN
F 1 "LED" H 7350 2750 50  0000 C CNN
F 2 "" H 7600 2800 50  0001 C CNN
F 3 "~" H 7600 2800 50  0001 C CNN
	1    7600 2800
	-1   0    0    1   
$EndComp
$Comp
L Device:LED D?
U 1 1 5C145DF4
P 7600 2900
F 0 "D?" H 7750 2850 50  0000 C CNN
F 1 "LED" H 7350 2850 50  0000 C CNN
F 2 "" H 7600 2900 50  0001 C CNN
F 3 "~" H 7600 2900 50  0001 C CNN
	1    7600 2900
	-1   0    0    1   
$EndComp
$Comp
L Device:LED D?
U 1 1 5C145E1A
P 7600 3000
F 0 "D?" H 7750 2950 50  0000 C CNN
F 1 "LED" H 7350 2950 50  0000 C CNN
F 2 "" H 7600 3000 50  0001 C CNN
F 3 "~" H 7600 3000 50  0001 C CNN
	1    7600 3000
	-1   0    0    1   
$EndComp
$Comp
L Device:LED D?
U 1 1 5C146610
P 7600 3100
F 0 "D?" H 7750 3050 50  0000 C CNN
F 1 "LED" H 7350 3050 50  0000 C CNN
F 2 "" H 7600 3100 50  0001 C CNN
F 3 "~" H 7600 3100 50  0001 C CNN
	1    7600 3100
	-1   0    0    1   
$EndComp
$Comp
L Device:LED D?
U 1 1 5C146617
P 7600 3200
F 0 "D?" H 7750 3150 50  0000 C CNN
F 1 "LED" H 7350 3150 50  0000 C CNN
F 2 "" H 7600 3200 50  0001 C CNN
F 3 "~" H 7600 3200 50  0001 C CNN
	1    7600 3200
	-1   0    0    1   
$EndComp
$Comp
L Device:LED D?
U 1 1 5C14661E
P 7600 3300
F 0 "D?" H 7750 3250 50  0000 C CNN
F 1 "LED" H 7350 3250 50  0000 C CNN
F 2 "" H 7600 3300 50  0001 C CNN
F 3 "~" H 7600 3300 50  0001 C CNN
	1    7600 3300
	-1   0    0    1   
$EndComp
$Comp
L Device:LED D?
U 1 1 5C146625
P 7600 3400
F 0 "D?" H 7750 3350 50  0000 C CNN
F 1 "LED" H 7350 3350 50  0000 C CNN
F 2 "" H 7600 3400 50  0001 C CNN
F 3 "~" H 7600 3400 50  0001 C CNN
	1    7600 3400
	-1   0    0    1   
$EndComp
$Comp
L Device:LED D?
U 1 1 5C14662C
P 7600 3500
F 0 "D?" H 7750 3450 50  0000 C CNN
F 1 "LED" H 7350 3450 50  0000 C CNN
F 2 "" H 7600 3500 50  0001 C CNN
F 3 "~" H 7600 3500 50  0001 C CNN
	1    7600 3500
	-1   0    0    1   
$EndComp
Wire Wire Line
	6350 2700 6700 2700
Wire Wire Line
	6700 2800 6350 2800
Wire Wire Line
	6350 2900 6700 2900
Wire Wire Line
	6350 3000 6700 3000
Wire Wire Line
	6350 3100 6700 3100
Wire Wire Line
	6700 3200 6350 3200
Wire Wire Line
	7100 3200 7450 3200
Wire Wire Line
	7100 3000 7450 3000
Wire Wire Line
	7450 3100 7100 3100
Wire Wire Line
	7100 2900 7450 2900
Wire Wire Line
	7450 2800 7100 2800
Wire Wire Line
	7100 2700 7450 2700
Wire Wire Line
	6350 4200 9300 4200
$Comp
L Device:LED D?
U 1 1 5C17F383
P 7600 3600
F 0 "D?" H 7750 3550 50  0000 C CNN
F 1 "LED" H 7350 3550 50  0000 C CNN
F 2 "" H 7600 3600 50  0001 C CNN
F 3 "~" H 7600 3600 50  0001 C CNN
	1    7600 3600
	-1   0    0    1   
$EndComp
Wire Wire Line
	9750 800  9750 700 
Connection ~ 9750 800 
Wire Wire Line
	9150 900  8800 900 
Wire Wire Line
	8800 900  8800 1000
Wire Wire Line
	8800 1000 8750 1000
Wire Wire Line
	8750 800  9150 800 
Wire Wire Line
	8850 1000 8850 1200
Wire Wire Line
	8850 1200 8750 1200
Wire Wire Line
	8850 1000 9150 1000
Wire Wire Line
	9150 1100 8900 1100
Wire Wire Line
	8900 1100 8900 1650
Wire Wire Line
	8900 1650 8750 1650
Wire Wire Line
	8750 1850 8950 1850
Wire Wire Line
	8950 1850 8950 1200
Wire Wire Line
	8950 1200 9150 1200
Wire Wire Line
	9150 1300 9000 1300
Wire Wire Line
	9000 1300 9000 2050
Wire Wire Line
	9000 2050 8750 2050
$Comp
L Device:R_Pack08 RN?
U 1 1 5C1A1DD0
P 9350 1200
F 0 "RN?" V 8733 1200 50  0000 C CNN
F 1 "R_Pack08" V 8824 1200 50  0000 C CNN
F 2 "" V 9825 1200 50  0001 C CNN
F 3 "~" H 9350 1200 50  0001 C CNN
	1    9350 1200
	0    1    1    0   
$EndComp
Wire Wire Line
	8400 800  8350 800 
Wire Wire Line
	6450 800  6450 1900
Wire Wire Line
	6450 1900 6350 1900
Connection ~ 8350 800 
Wire Wire Line
	8350 800  6450 800 
Wire Wire Line
	6350 2000 6500 2000
Wire Wire Line
	6500 2000 6500 1000
Wire Wire Line
	6500 1000 8350 1000
Wire Wire Line
	8350 1200 6550 1200
Wire Wire Line
	6550 1200 6550 2100
Wire Wire Line
	6550 2100 6350 2100
Wire Wire Line
	6350 2200 6600 2200
Wire Wire Line
	6600 2200 6600 1650
Wire Wire Line
	6600 1650 8350 1650
Wire Wire Line
	8350 1850 6650 1850
Wire Wire Line
	6650 1850 6650 2300
Wire Wire Line
	8350 2050 6700 2050
Wire Wire Line
	6700 2050 6700 2400
Wire Wire Line
	7750 2500 9050 2500
Wire Wire Line
	9050 2500 9050 1400
Wire Wire Line
	9050 1400 9150 1400
Wire Wire Line
	9150 1500 9100 1500
Wire Wire Line
	9100 1500 9100 2600
Wire Wire Line
	9100 2600 7750 2600
$Comp
L Device:R_Pack08 RN?
U 1 1 5C1B81A3
P 6900 3100
F 0 "RN?" V 6283 3100 50  0000 C CNN
F 1 "R_Pack08" V 6374 3100 50  0000 C CNN
F 2 "" V 7375 3100 50  0001 C CNN
F 3 "~" H 6900 3100 50  0001 C CNN
	1    6900 3100
	0    1    1    0   
$EndComp
Wire Wire Line
	6350 2500 7450 2500
Wire Wire Line
	6350 2600 7450 2600
Wire Wire Line
	6350 3300 6700 3300
Wire Wire Line
	7100 3300 7450 3300
Wire Wire Line
	6350 3400 6700 3400
Wire Wire Line
	7100 3400 7450 3400
$Comp
L power:GND #PWR?
U 1 1 5C1CF34D
P 9750 1500
F 0 "#PWR?" H 9750 1250 50  0001 C CNN
F 1 "GND" H 9755 1327 50  0000 C CNN
F 2 "" H 9750 1500 50  0001 C CNN
F 3 "" H 9750 1500 50  0001 C CNN
	1    9750 1500
	1    0    0    -1  
$EndComp
Wire Wire Line
	9550 1500 9750 1500
Wire Wire Line
	9750 1500 9750 1400
Wire Wire Line
	9750 1400 9550 1400
Connection ~ 9750 1500
$Comp
L Device:R R?
U 1 1 5C1D6443
P 6900 3500
F 0 "R?" V 6950 3350 50  0000 C CNN
F 1 "330" V 6900 3500 50  0000 C CNN
F 2 "" V 6830 3500 50  0001 C CNN
F 3 "~" H 6900 3500 50  0001 C CNN
	1    6900 3500
	0    1    1    0   
$EndComp
$Comp
L Device:R R?
U 1 1 5C1D650B
P 6900 3600
F 0 "R?" V 6950 3450 50  0000 C CNN
F 1 "330" V 6900 3600 50  0000 C CNN
F 2 "" V 6830 3600 50  0001 C CNN
F 3 "~" H 6900 3600 50  0001 C CNN
	1    6900 3600
	0    1    1    0   
$EndComp
Wire Wire Line
	6350 3500 6750 3500
Wire Wire Line
	6750 3600 6350 3600
Wire Wire Line
	7050 3500 7450 3500
Wire Wire Line
	7450 3600 7050 3600
$Comp
L power:GND #PWR?
U 1 1 5C1E59D0
P 8600 3600
F 0 "#PWR?" H 8600 3350 50  0001 C CNN
F 1 "GND" H 8605 3427 50  0000 C CNN
F 2 "" H 8600 3600 50  0001 C CNN
F 3 "" H 8600 3600 50  0001 C CNN
	1    8600 3600
	1    0    0    -1  
$EndComp
Wire Wire Line
	7750 2700 8600 2700
Wire Wire Line
	8600 3500 7750 3500
Connection ~ 8600 3500
Wire Wire Line
	8600 3500 8600 3600
Wire Wire Line
	7750 3400 8600 3400
Connection ~ 8600 3400
Wire Wire Line
	8600 3400 8600 3500
Wire Wire Line
	8600 3300 7750 3300
Connection ~ 8600 3300
Wire Wire Line
	8600 3300 8600 3400
Wire Wire Line
	7750 3200 8600 3200
Connection ~ 8600 3200
Wire Wire Line
	8600 3200 8600 3300
Wire Wire Line
	8600 3100 7750 3100
Connection ~ 8600 3100
Wire Wire Line
	8600 3100 8600 3200
Wire Wire Line
	7750 3000 8600 3000
Connection ~ 8600 3000
Wire Wire Line
	8600 3000 8600 3100
Wire Wire Line
	7750 2900 8600 2900
Wire Wire Line
	8600 2700 8600 2800
Connection ~ 8600 2900
Wire Wire Line
	8600 2900 8600 3000
Wire Wire Line
	7750 2800 8600 2800
Connection ~ 8600 2800
Wire Wire Line
	8600 2800 8600 2900
Wire Wire Line
	8600 3600 7750 3600
Connection ~ 8600 3600
$Comp
L Switch:SW_SPST SW?
U 1 1 5BF3B8BA
P 7350 5500
F 0 "SW?" H 7600 5550 50  0000 C CNN
F 1 "SW_SPST" H 7000 5550 50  0000 C CNN
F 2 "" H 7350 5500 50  0001 C CNN
F 3 "" H 7350 5500 50  0001 C CNN
	1    7350 5500
	1    0    0    -1  
$EndComp
$Comp
L Switch:SW_SPST SW?
U 1 1 5BF3BA70
P 7350 5600
F 0 "SW?" H 7600 5650 50  0000 C CNN
F 1 "SW_SPST" H 7000 5650 50  0000 C CNN
F 2 "" H 7350 5600 50  0001 C CNN
F 3 "" H 7350 5600 50  0001 C CNN
	1    7350 5600
	1    0    0    -1  
$EndComp
$Comp
L Switch:SW_SPST SW?
U 1 1 5BF3BABA
P 7350 5700
F 0 "SW?" H 7600 5750 50  0000 C CNN
F 1 "SW_SPST" H 7000 5750 50  0000 C CNN
F 2 "" H 7350 5700 50  0001 C CNN
F 3 "" H 7350 5700 50  0001 C CNN
	1    7350 5700
	1    0    0    -1  
$EndComp
$Comp
L Switch:SW_SPST SW?
U 1 1 5BF3BAFE
P 7350 5800
F 0 "SW?" H 7600 5850 50  0000 C CNN
F 1 "SW_SPST" H 7000 5850 50  0000 C CNN
F 2 "" H 7350 5800 50  0001 C CNN
F 3 "" H 7350 5800 50  0001 C CNN
	1    7350 5800
	1    0    0    -1  
$EndComp
$Comp
L Switch:SW_SPST SW?
U 1 1 5BF3BB48
P 7350 5900
F 0 "SW?" H 7600 5950 50  0000 C CNN
F 1 "SW_SPST" H 7000 5950 50  0000 C CNN
F 2 "" H 7350 5900 50  0001 C CNN
F 3 "" H 7350 5900 50  0001 C CNN
	1    7350 5900
	1    0    0    -1  
$EndComp
$Comp
L Switch:SW_SPST SW?
U 1 1 5BF3BB90
P 7350 6000
F 0 "SW?" H 7600 6050 50  0000 C CNN
F 1 "SW_SPST" H 7000 6050 50  0000 C CNN
F 2 "" H 7350 6000 50  0001 C CNN
F 3 "" H 7350 6000 50  0001 C CNN
	1    7350 6000
	1    0    0    -1  
$EndComp
$Comp
L Switch:SW_SPST SW?
U 1 1 5BF3BBD6
P 7350 6100
F 0 "SW?" H 7600 6150 50  0000 C CNN
F 1 "SW_SPST" H 7000 6150 50  0000 C CNN
F 2 "" H 7350 6100 50  0001 C CNN
F 3 "" H 7350 6100 50  0001 C CNN
	1    7350 6100
	1    0    0    -1  
$EndComp
$Comp
L Switch:SW_SPST SW?
U 1 1 5BF3BC1E
P 7350 6200
F 0 "SW?" H 7600 6250 50  0000 C CNN
F 1 "SW_SPST" H 7000 6250 50  0000 C CNN
F 2 "" H 7350 6200 50  0001 C CNN
F 3 "" H 7350 6200 50  0001 C CNN
	1    7350 6200
	1    0    0    -1  
$EndComp
$Comp
L Switch:SW_SPST SW?
U 1 1 5BF3BC74
P 7350 6300
F 0 "SW?" H 7600 6350 50  0000 C CNN
F 1 "SW_SPST" H 7000 6350 50  0000 C CNN
F 2 "" H 7350 6300 50  0001 C CNN
F 3 "" H 7350 6300 50  0001 C CNN
	1    7350 6300
	1    0    0    -1  
$EndComp
$Comp
L Switch:SW_SPST SW?
U 1 1 5BF3BCC8
P 7350 6400
F 0 "SW?" H 7600 6450 50  0000 C CNN
F 1 "SW_SPST" H 7000 6450 50  0000 C CNN
F 2 "" H 7350 6400 50  0001 C CNN
F 3 "" H 7350 6400 50  0001 C CNN
	1    7350 6400
	1    0    0    -1  
$EndComp
$Comp
L Switch:SW_SPST SW?
U 1 1 5BF3BD1E
P 7350 6500
F 0 "SW?" H 7600 6550 50  0000 C CNN
F 1 "BTN" H 7000 6550 50  0000 C CNN
F 2 "" H 7350 6500 50  0001 C CNN
F 3 "" H 7350 6500 50  0001 C CNN
	1    7350 6500
	1    0    0    -1  
$EndComp
$Comp
L Switch:SW_SPST SW?
U 1 1 5BF3BD70
P 7350 6600
F 0 "SW?" H 7600 6650 50  0000 C CNN
F 1 "BTN" H 7000 6650 50  0000 C CNN
F 2 "" H 7350 6600 50  0001 C CNN
F 3 "" H 7350 6600 50  0001 C CNN
	1    7350 6600
	1    0    0    -1  
$EndComp
$Comp
L Switch:SW_SPST SW?
U 1 1 5BF3BDC2
P 7350 6700
F 0 "SW?" H 7600 6750 50  0000 C CNN
F 1 "BTN" H 7000 6750 50  0000 C CNN
F 2 "" H 7350 6700 50  0001 C CNN
F 3 "" H 7350 6700 50  0001 C CNN
	1    7350 6700
	1    0    0    -1  
$EndComp
$Comp
L Switch:SW_SPST SW?
U 1 1 5BF3BE1E
P 7350 6800
F 0 "SW?" H 7600 6850 50  0000 C CNN
F 1 "BTN" H 7000 6850 50  0000 C CNN
F 2 "" H 7350 6800 50  0001 C CNN
F 3 "" H 7350 6800 50  0001 C CNN
	1    7350 6800
	1    0    0    -1  
$EndComp
Wire Wire Line
	6350 5500 7150 5500
Wire Wire Line
	6350 5700 7150 5700
Wire Wire Line
	7150 5600 6350 5600
Wire Wire Line
	6350 5800 7150 5800
Wire Wire Line
	7150 5900 6350 5900
Wire Wire Line
	6350 6000 7150 6000
Wire Wire Line
	7150 6100 6350 6100
Wire Wire Line
	6350 6200 7150 6200
Wire Wire Line
	7150 6300 6350 6300
Wire Wire Line
	7150 6400 6350 6400
Wire Wire Line
	6350 6500 7150 6500
Wire Wire Line
	7150 6600 6350 6600
Wire Wire Line
	6350 6700 7150 6700
Wire Wire Line
	7150 6800 6350 6800
Wire Wire Line
	7550 5500 7900 5500
Wire Wire Line
	7900 6800 7550 6800
Wire Wire Line
	7550 6700 7900 6700
Connection ~ 7900 6700
Wire Wire Line
	7900 6700 7900 6800
Wire Wire Line
	7900 6600 7550 6600
Connection ~ 7900 6600
Wire Wire Line
	7900 6600 7900 6700
Wire Wire Line
	7550 6500 7900 6500
Wire Wire Line
	7900 5500 7900 5600
Connection ~ 7900 6500
Wire Wire Line
	7900 6500 7900 6600
Wire Wire Line
	7900 6400 7550 6400
Connection ~ 7900 6400
Wire Wire Line
	7900 6400 7900 6500
Wire Wire Line
	7550 6300 7900 6300
Connection ~ 7900 6300
Wire Wire Line
	7900 6300 7900 6400
Wire Wire Line
	7550 6200 7900 6200
Connection ~ 7900 6200
Wire Wire Line
	7900 6200 7900 6300
Wire Wire Line
	7900 6100 7550 6100
Connection ~ 7900 6100
Wire Wire Line
	7900 6100 7900 6200
Wire Wire Line
	7550 6000 7900 6000
Connection ~ 7900 6000
Wire Wire Line
	7900 6000 7900 6100
Wire Wire Line
	7900 5900 7550 5900
Connection ~ 7900 5900
Wire Wire Line
	7900 5900 7900 6000
Wire Wire Line
	7550 5800 7900 5800
Connection ~ 7900 5800
Wire Wire Line
	7900 5800 7900 5900
Wire Wire Line
	7900 5700 7550 5700
Connection ~ 7900 5700
Wire Wire Line
	7900 5700 7900 5800
Wire Wire Line
	7550 5600 7900 5600
Connection ~ 7900 5600
Wire Wire Line
	7900 5600 7900 5700
$Comp
L power:GND #PWR?
U 1 1 5C0128A6
P 7900 6850
F 0 "#PWR?" H 7900 6600 50  0001 C CNN
F 1 "GND" H 7905 6677 50  0000 C CNN
F 2 "" H 7900 6850 50  0001 C CNN
F 3 "" H 7900 6850 50  0001 C CNN
	1    7900 6850
	1    0    0    -1  
$EndComp
Wire Wire Line
	7900 6800 7900 6850
Connection ~ 7900 6800
$Comp
L kpp2-rescue:Conn_02x20_oboard4-conn_02x20_counter_clockwise J?
U 1 1 5C03B8BA
P 1200 5800
AR Path="/5C03B8BA" Ref="J?"  Part="1" 
AR Path="/5BF24979/5C03B8BA" Ref="J?"  Part="1" 
F 0 "J?" H 1331 8965 50  0000 C CNN
F 1 "Conn_02x20_oboard4" H 1331 8874 50  0000 C CNN
F 2 "" H 1350 7800 50  0001 C CNN
F 3 "~" H 1350 7800 50  0001 C CNN
	1    1200 5800
	1    0    0    -1  
$EndComp
Wire Wire Line
	1500 2900 1500 2800
Wire Wire Line
	1500 2800 2350 2800
Wire Wire Line
	1800 3000 2350 3000
Wire Wire Line
	2350 2900 1550 2900
Wire Wire Line
	1550 2900 1550 3000
Wire Wire Line
	1550 3000 1500 3000
Wire Wire Line
	1500 3100 2350 3100
Wire Wire Line
	2350 3200 1500 3200
Wire Wire Line
	1500 3300 2350 3300
Wire Wire Line
	2350 3400 1500 3400
Wire Wire Line
	1500 3500 2350 3500
Wire Wire Line
	2350 3600 1500 3600
Wire Wire Line
	1500 3700 2350 3700
Wire Wire Line
	2350 3800 1500 3800
Wire Wire Line
	1500 3900 2350 3900
Wire Wire Line
	2350 4000 1500 4000
Wire Wire Line
	1500 4100 2350 4100
Wire Wire Line
	1500 4200 2350 4200
Wire Wire Line
	2350 4300 1500 4300
Wire Wire Line
	1500 4400 2350 4400
Wire Wire Line
	2350 4500 1500 4500
Wire Wire Line
	1500 4600 2350 4600
Wire Wire Line
	2350 4700 1500 4700
Wire Wire Line
	1500 4800 2350 4800
Wire Wire Line
	2350 4900 1500 4900
Wire Wire Line
	1500 5000 2350 5000
Wire Wire Line
	1500 5100 2350 5100
Wire Wire Line
	2350 5200 1500 5200
Wire Wire Line
	1500 5300 2350 5300
Wire Wire Line
	2350 5400 1500 5400
Wire Wire Line
	1500 5500 2350 5500
Wire Wire Line
	1500 5600 2350 5600
Wire Wire Line
	2350 5700 1500 5700
Wire Wire Line
	1500 5800 2350 5800
Wire Wire Line
	2350 5900 1500 5900
Wire Wire Line
	1500 6000 2350 6000
Wire Wire Line
	2350 6100 1500 6100
Wire Wire Line
	1500 6200 2350 6200
Wire Wire Line
	2350 6300 1500 6300
Wire Wire Line
	1500 6400 2350 6400
Wire Wire Line
	2350 6500 1500 6500
Wire Wire Line
	1500 6600 2350 6600
Wire Wire Line
	1500 6700 2350 6700
Wire Wire Line
	2350 6800 1500 6800
$Comp
L Connector_Generic:Conn_01x08 J?
U 1 1 5C085118
P 8850 5000
F 0 "J?" H 8930 4992 50  0000 L CNN
F 1 "DIGITAL[7:0]" H 8930 4901 50  0000 L CNN
F 2 "" H 8850 5000 50  0001 C CNN
F 3 "~" H 8850 5000 50  0001 C CNN
	1    8850 5000
	1    0    0    -1  
$EndComp
Wire Wire Line
	8650 5400 6350 5400
Wire Wire Line
	6350 5300 8650 5300
Wire Wire Line
	8650 5200 6350 5200
Wire Wire Line
	6350 5100 8650 5100
Wire Wire Line
	8650 5000 6350 5000
Wire Wire Line
	6350 4900 8650 4900
Wire Wire Line
	8650 4800 6350 4800
Wire Wire Line
	6350 4700 8650 4700
$Comp
L Connector_Generic:Conn_01x07 J?
U 1 1 5C117C53
P 8850 4250
F 0 "J?" H 8929 4292 50  0000 L CNN
F 1 "DIGITAL[13:8]" H 8929 4201 50  0000 L CNN
F 2 "" H 8850 4250 50  0001 C CNN
F 3 "~" H 8850 4250 50  0001 C CNN
	1    8850 4250
	1    0    0    -1  
$EndComp
Wire Wire Line
	6350 4600 8650 4600
Wire Wire Line
	8650 4600 8650 4550
Wire Wire Line
	6350 4500 8650 4500
Wire Wire Line
	8650 4500 8650 4450
Wire Wire Line
	6350 4400 8650 4400
Wire Wire Line
	8650 4400 8650 4350
Wire Wire Line
	6350 4300 8650 4300
Wire Wire Line
	8650 4300 8650 4250
Wire Wire Line
	6350 4100 8650 4100
Wire Wire Line
	8650 4100 8650 4150
Wire Wire Line
	6350 4000 8350 4000
Wire Wire Line
	8650 4000 8650 4050
Wire Wire Line
	8600 3600 8650 3600
Wire Wire Line
	8650 3600 8650 3950
Text HLabel 1800 2400 0    50   Input ~ 0
RXD
Text HLabel 1800 2500 0    50   Output ~ 0
TXD
Wire Wire Line
	1800 2500 2350 2500
Wire Wire Line
	2350 2400 1800 2400
Text HLabel 7700 3700 2    50   Input ~ 0
A0
Text HLabel 7700 3800 2    50   Input ~ 0
A1
Text HLabel 7700 3900 2    50   Input ~ 0
A2
Wire Wire Line
	6350 3700 7700 3700
Wire Wire Line
	6350 3800 7700 3800
Wire Wire Line
	7700 3900 6350 3900
Text HLabel 8250 3900 0    50   Input ~ 0
A3
Wire Wire Line
	8250 3900 8350 3900
Wire Wire Line
	8350 3900 8350 4000
Connection ~ 8350 4000
Wire Wire Line
	8350 4000 8650 4000
$EndSCHEMATC
