EESchema Schematic File Version 4
LIBS:kpp2-cache
EELAYER 26 0
EELAYER END
$Descr A4 11693 8268
encoding utf-8
Sheet 1 6
Title ""
Date ""
Rev ""
Comp ""
Comment1 ""
Comment2 ""
Comment3 ""
Comment4 ""
$EndDescr
$Sheet
S 950  750  1100 750 
U 5BF265E3
F0 "power" 50
F1 "power.sch" 50
$EndSheet
$Sheet
S 7450 2800 1950 2000
U 5BF24979
F0 "io1 and programming" 50
F1 "io1.sch" 50
F2 "D" B L 7450 3200 50 
F3 "Q" B L 7450 3300 50 
F4 "~S" B L 7450 3400 50 
F5 "~W" B L 7450 3500 50 
F6 "~HOLD" B L 7450 3600 50 
F7 "TXD" O L 7450 4550 39 
F8 "RXD" I L 7450 4450 39 
F9 "A0" I R 9400 3300 50 
F10 "A1" I R 9400 3200 50 
F11 "A2" I R 9400 3100 50 
F12 "A3" I R 9400 3000 50 
$EndSheet
$Comp
L Memory_Flash:M25PX32-VMW U?
U 1 1 5BF27A22
P 5550 3400
F 0 "U?" H 6100 3100 50  0000 C CNN
F 1 "M25P OR W25Q" H 6150 2950 50  0000 C CNN
F 2 "Package_SO:SOIJ-8_5.3x5.3mm_P1.27mm" H 6200 3450 50  0001 C CNN
F 3 "https://www.micron.com/~/media/documents/products/data-sheet/nor-flash/serial-nor/m25px/m25px32.pdf" H 5700 3300 50  0001 C CNN
	1    5550 3400
	-1   0    0    -1  
$EndComp
Wire Wire Line
	4950 3200 4750 3200
Wire Wire Line
	4750 3200 4750 3000
Wire Wire Line
	4750 3000 6550 3000
Wire Wire Line
	6550 3000 6550 3300
Wire Wire Line
	4350 3300 6150 3300
$Comp
L power:+3.3V #PWR?
U 1 1 5BF253AE
P 6900 2500
F 0 "#PWR?" H 6900 2350 50  0001 C CNN
F 1 "+3.3V" H 6915 2673 50  0000 C CNN
F 2 "" H 6900 2500 50  0001 C CNN
F 3 "" H 6900 2500 50  0001 C CNN
	1    6900 2500
	1    0    0    -1  
$EndComp
$Comp
L power:+3.3V #PWR?
U 1 1 5BF253D2
P 5550 2500
F 0 "#PWR?" H 5550 2350 50  0001 C CNN
F 1 "+3.3V" H 5565 2673 50  0000 C CNN
F 2 "" H 5550 2500 50  0001 C CNN
F 3 "" H 5550 2500 50  0001 C CNN
	1    5550 2500
	1    0    0    -1  
$EndComp
Wire Wire Line
	5550 2500 5550 2900
$Comp
L Device:R R?
U 1 1 5BF25638
P 6900 2950
F 0 "R?" H 6970 2996 50  0000 L CNN
F 1 "4.7k" H 6970 2905 50  0000 L CNN
F 2 "" V 6830 2950 50  0001 C CNN
F 3 "~" H 6900 2950 50  0001 C CNN
	1    6900 2950
	1    0    0    -1  
$EndComp
$Comp
L Device:R R?
U 1 1 5BF256CB
P 6650 2800
F 0 "R?" H 6500 2850 50  0000 L CNN
F 1 "2.4k" H 6400 2750 50  0000 L CNN
F 2 "" V 6580 2800 50  0001 C CNN
F 3 "~" H 6650 2800 50  0001 C CNN
	1    6650 2800
	1    0    0    -1  
$EndComp
$Comp
L Device:R R?
U 1 1 5BF256FF
P 7150 2800
F 0 "R?" H 7220 2846 50  0000 L CNN
F 1 "4.7k" H 7220 2755 50  0000 L CNN
F 2 "" V 7080 2800 50  0001 C CNN
F 3 "~" H 7150 2800 50  0001 C CNN
	1    7150 2800
	1    0    0    -1  
$EndComp
Wire Wire Line
	6150 3200 7450 3200
Wire Wire Line
	6550 3300 7450 3300
Wire Wire Line
	6150 3400 6650 3400
Wire Wire Line
	6150 3500 6900 3500
Wire Wire Line
	6150 3600 7150 3600
Wire Wire Line
	6650 2650 6650 2550
Wire Wire Line
	6650 2550 6900 2550
Wire Wire Line
	7150 2550 7150 2650
Wire Wire Line
	6900 2550 6900 2500
Connection ~ 6900 2550
Wire Wire Line
	6900 2550 7150 2550
Wire Wire Line
	6900 2550 6900 2800
Wire Wire Line
	6900 3100 6900 3500
Connection ~ 6900 3500
Wire Wire Line
	6900 3500 7450 3500
Wire Wire Line
	6650 2950 6650 3400
Connection ~ 6650 3400
Wire Wire Line
	6650 3400 7450 3400
Wire Wire Line
	7150 2950 7150 3600
Connection ~ 7150 3600
Wire Wire Line
	7150 3600 7450 3600
$Comp
L power:GND #PWR?
U 1 1 5BF26C2F
P 5550 4000
F 0 "#PWR?" H 5550 3750 50  0001 C CNN
F 1 "GND" H 5555 3827 50  0000 C CNN
F 2 "" H 5550 4000 50  0001 C CNN
F 3 "" H 5550 4000 50  0001 C CNN
	1    5550 4000
	1    0    0    -1  
$EndComp
Wire Wire Line
	5550 3900 5550 4000
Text Notes 1100 1150 0    157  ~ 0
POWER
$Sheet
S 2450 5000 1900 800 
U 5C264DA1
F0 "io2" 50
F1 "io2.sch" 50
$EndSheet
$Sheet
S 3250 4000 1100 750 
U 5BF5BE4D
F0 "FTDI_builtin_programmer" 50
F1 "FTDI_builtin_programmer.sch" 50
F2 "TCK" B L 3250 4100 39 
F3 "TDI" B L 3250 4200 39 
F4 "TDO" B L 3250 4300 39 
F5 "TMS" B L 3250 4400 39 
F6 "TXD" O R 4350 4550 39 
F7 "RXD" I R 4350 4450 39 
$EndSheet
Text Notes 3450 4300 0    157  ~ 0
FTDI
$Sheet
S 3250 2050 1100 1800
U 5BF23247
F0 "FPGA_prog_signals" 50
F1 "FPGA_prog_signals.sch" 50
F2 "CCLK" O R 4350 3300 50 
F3 "VP_0" I R 4350 2150 39 
F4 "VN_0" I R 4350 2250 39 
F5 "TDI" I L 3250 3650 39 
F6 "TDO" O L 3250 3550 39 
F7 "TMS" O L 3250 3450 39 
F8 "TCK" O L 3250 3750 39 
$EndSheet
Wire Wire Line
	3250 3750 3100 3750
Wire Wire Line
	3100 3750 3100 4100
Wire Wire Line
	3100 4100 3250 4100
Wire Wire Line
	3250 3650 3050 3650
Wire Wire Line
	3050 3650 3050 3900
Wire Wire Line
	3050 4200 3250 4200
Wire Wire Line
	3250 4300 3000 4300
Wire Wire Line
	3000 4300 3000 4000
Wire Wire Line
	3000 3550 3250 3550
Wire Wire Line
	3250 3450 2950 3450
Wire Wire Line
	2950 3450 2950 3800
Wire Wire Line
	2950 4400 3250 4400
Wire Wire Line
	4350 4450 7450 4450
Wire Wire Line
	7450 4550 4350 4550
$Comp
L Connector_Generic:Conn_01x06 J?
U 1 1 5C07EC53
P 2050 4100
F 0 "J?" H 1970 3575 50  0000 C CNN
F 1 "PROGRAMMER" H 1970 3666 50  0000 C CNN
F 2 "" H 2050 4100 50  0001 C CNN
F 3 "~" H 2050 4100 50  0001 C CNN
	1    2050 4100
	-1   0    0    1   
$EndComp
$Comp
L power:+3.3V #PWR?
U 1 1 5C07ECC2
P 2400 4200
F 0 "#PWR?" H 2400 4050 50  0001 C CNN
F 1 "+3.3V" V 2415 4328 50  0000 L CNN
F 2 "" H 2400 4200 50  0001 C CNN
F 3 "" H 2400 4200 50  0001 C CNN
	1    2400 4200
	0    1    1    0   
$EndComp
$Comp
L power:GND #PWR?
U 1 1 5C07ED03
P 2400 4300
F 0 "#PWR?" H 2400 4050 50  0001 C CNN
F 1 "GND" H 2405 4127 50  0000 C CNN
F 2 "" H 2400 4300 50  0001 C CNN
F 3 "" H 2400 4300 50  0001 C CNN
	1    2400 4300
	1    0    0    -1  
$EndComp
Wire Wire Line
	2400 4300 2250 4300
Wire Wire Line
	2250 4200 2400 4200
Wire Wire Line
	2250 4100 3100 4100
Connection ~ 3100 4100
Wire Wire Line
	3000 4000 2250 4000
Connection ~ 3000 4000
Wire Wire Line
	3000 4000 3000 3550
Wire Wire Line
	2250 3900 3050 3900
Connection ~ 3050 3900
Wire Wire Line
	3050 3900 3050 4200
Wire Wire Line
	2950 3800 2250 3800
Connection ~ 2950 3800
Wire Wire Line
	2950 3800 2950 4400
$Comp
L Connector_Generic:Conn_01x06 J?
U 1 1 5C1BAC40
P 9950 3100
F 0 "J?" H 9870 2575 50  0000 C CNN
F 1 "ANALOG" H 9870 2666 50  0000 C CNN
F 2 "" H 9950 3100 50  0001 C CNN
F 3 "~" H 9950 3100 50  0001 C CNN
	1    9950 3100
	1    0    0    1   
$EndComp
Wire Wire Line
	4350 2150 9600 2150
Wire Wire Line
	9600 2150 9600 2800
Wire Wire Line
	9600 2800 9750 2800
Wire Wire Line
	9750 2900 9550 2900
Wire Wire Line
	9550 2900 9550 2250
Wire Wire Line
	9550 2250 4350 2250
Wire Wire Line
	9400 3000 9750 3000
Wire Wire Line
	9400 3100 9750 3100
Wire Wire Line
	9750 3200 9400 3200
Wire Wire Line
	9400 3300 9750 3300
$EndSCHEMATC
