EESchema Schematic File Version 4
LIBS:kpp2-cache
EELAYER 26 0
EELAYER END
$Descr A4 11693 8268
encoding utf-8
Sheet 2 6
Title ""
Date ""
Rev ""
Comp ""
Comment1 ""
Comment2 ""
Comment3 ""
Comment4 ""
$EndDescr
$Comp
L FPGA_Xilinx_Artix7:XC7A35T-FTG256 U?
U 4 1 5BF2665B
P 4050 3900
F 0 "U?" H 4050 5467 50  0000 C CNN
F 1 "XC7A35T-FTG256" H 4050 5376 50  0000 C CNN
F 2 "" H 4050 3900 50  0001 C CNN
F 3 "" H 4050 3900 50  0000 C CNN
	4    4050 3900
	1    0    0    -1  
$EndComp
$Comp
L Regulator_Linear:AMS1117-3.3 U?
U 1 1 5BF26743
P 3900 1100
F 0 "U?" H 3900 1342 50  0000 C CNN
F 1 "AMS1117-3.3" H 3900 1251 50  0000 C CNN
F 2 "Package_TO_SOT_SMD:SOT-223-3_TabPin2" H 3900 1300 50  0001 C CNN
F 3 "http://www.advanced-monolithic.com/pdf/ds1117.pdf" H 4000 850 50  0001 C CNN
	1    3900 1100
	1    0    0    -1  
$EndComp
$Comp
L Regulator_Linear:AMS1117-1.8 U?
U 1 1 5BF2682D
P 7350 1150
F 0 "U?" H 7350 1392 50  0000 C CNN
F 1 "AMS1117-1.8" H 7350 1301 50  0000 C CNN
F 2 "Package_TO_SOT_SMD:SOT-223-3_TabPin2" H 7350 1350 50  0001 C CNN
F 3 "http://www.advanced-monolithic.com/pdf/ds1117.pdf" H 7450 900 50  0001 C CNN
	1    7350 1150
	1    0    0    -1  
$EndComp
$Comp
L power:GND #PWR?
U 1 1 5BF26A05
P 7350 1600
F 0 "#PWR?" H 7350 1350 50  0001 C CNN
F 1 "GND" H 7355 1427 50  0000 C CNN
F 2 "" H 7350 1600 50  0001 C CNN
F 3 "" H 7350 1600 50  0001 C CNN
	1    7350 1600
	1    0    0    -1  
$EndComp
$Comp
L power:GND #PWR?
U 1 1 5BF26A30
P 3900 1550
F 0 "#PWR?" H 3900 1300 50  0001 C CNN
F 1 "GND" H 3905 1377 50  0000 C CNN
F 2 "" H 3900 1550 50  0001 C CNN
F 3 "" H 3900 1550 50  0001 C CNN
	1    3900 1550
	1    0    0    -1  
$EndComp
Wire Wire Line
	3900 1400 3900 1550
Wire Wire Line
	7350 1450 7350 1600
$Comp
L Device:C C?
U 1 1 5BF26A80
P 7900 1300
F 0 "C?" H 8015 1346 50  0000 L CNN
F 1 "10 uF" H 8015 1255 50  0000 L CNN
F 2 "" H 7938 1150 50  0001 C CNN
F 3 "~" H 7900 1300 50  0001 C CNN
	1    7900 1300
	1    0    0    -1  
$EndComp
$Comp
L Device:C C?
U 1 1 5BF26ABA
P 4500 1250
F 0 "C?" H 4615 1296 50  0000 L CNN
F 1 "10 uF" H 4615 1205 50  0000 L CNN
F 2 "" H 4538 1100 50  0001 C CNN
F 3 "~" H 4500 1250 50  0001 C CNN
	1    4500 1250
	1    0    0    -1  
$EndComp
$Comp
L Device:C C?
U 1 1 5BF26AF5
P 3150 1250
F 0 "C?" H 3265 1296 50  0000 L CNN
F 1 "10 uF" H 3265 1205 50  0000 L CNN
F 2 "" H 3188 1100 50  0001 C CNN
F 3 "~" H 3150 1250 50  0001 C CNN
	1    3150 1250
	1    0    0    -1  
$EndComp
$Comp
L Device:C C?
U 1 1 5BF26B83
P 6600 1300
F 0 "C?" H 6715 1346 50  0000 L CNN
F 1 "10 uF" H 6715 1255 50  0000 L CNN
F 2 "" H 6638 1150 50  0001 C CNN
F 3 "~" H 6600 1300 50  0001 C CNN
	1    6600 1300
	1    0    0    -1  
$EndComp
Wire Wire Line
	4200 1100 4500 1100
Wire Wire Line
	7650 1150 7900 1150
$Comp
L power:+1V8 #PWR?
U 1 1 5BF26D9D
P 7900 1100
F 0 "#PWR?" H 7900 950 50  0001 C CNN
F 1 "+1V8" H 7915 1273 50  0000 C CNN
F 2 "" H 7900 1100 50  0001 C CNN
F 3 "" H 7900 1100 50  0001 C CNN
	1    7900 1100
	1    0    0    -1  
$EndComp
Wire Wire Line
	7900 1100 7900 1150
Connection ~ 7900 1150
Wire Wire Line
	4500 1050 4500 1100
Connection ~ 4500 1100
Wire Wire Line
	4500 1400 4500 1550
Wire Wire Line
	4500 1550 3900 1550
Connection ~ 3900 1550
Wire Wire Line
	7900 1450 7900 1600
Wire Wire Line
	7900 1600 7350 1600
Connection ~ 7350 1600
Wire Wire Line
	3150 1100 3600 1100
Wire Wire Line
	3900 1550 3150 1550
Wire Wire Line
	3150 1550 3150 1400
Wire Wire Line
	6600 1450 6600 1600
Wire Wire Line
	6600 1600 7350 1600
Wire Wire Line
	6600 1150 7050 1150
$Comp
L power:+5V #PWR?
U 1 1 5BF273CA
P 6600 1100
F 0 "#PWR?" H 6600 950 50  0001 C CNN
F 1 "+5V" H 6615 1273 50  0000 C CNN
F 2 "" H 6600 1100 50  0001 C CNN
F 3 "" H 6600 1100 50  0001 C CNN
	1    6600 1100
	1    0    0    -1  
$EndComp
$Comp
L power:+5V #PWR?
U 1 1 5BF27401
P 3150 1050
F 0 "#PWR?" H 3150 900 50  0001 C CNN
F 1 "+5V" H 3165 1223 50  0000 C CNN
F 2 "" H 3150 1050 50  0001 C CNN
F 3 "" H 3150 1050 50  0001 C CNN
	1    3150 1050
	1    0    0    -1  
$EndComp
Wire Wire Line
	3150 1100 3150 1050
Connection ~ 3150 1100
Wire Wire Line
	6600 1150 6600 1100
Connection ~ 6600 1150
Wire Wire Line
	5050 2600 5350 2600
Wire Wire Line
	5350 2600 5350 2700
Wire Wire Line
	5350 3200 5050 3200
Wire Wire Line
	5050 3100 5350 3100
Connection ~ 5350 3100
Wire Wire Line
	5350 3100 5350 3200
Wire Wire Line
	5350 3000 5050 3000
Wire Wire Line
	5050 2900 5350 2900
Wire Wire Line
	5350 2800 5050 2800
Wire Wire Line
	5050 2700 5350 2700
Wire Wire Line
	5350 3800 5050 3800
Wire Wire Line
	5050 3900 5350 3900
Wire Wire Line
	5350 3900 5350 3800
Wire Wire Line
	5350 4000 5050 4000
Connection ~ 5350 3900
Wire Wire Line
	5050 4100 5350 4100
Wire Wire Line
	5350 4200 5050 4200
Wire Wire Line
	5050 4300 5350 4300
Wire Wire Line
	5350 4400 5050 4400
Connection ~ 5350 4300
Wire Wire Line
	5050 4500 5350 4500
Wire Wire Line
	5350 4300 5350 4400
Connection ~ 5350 4400
Wire Wire Line
	5350 4400 5350 4500
Wire Wire Line
	5350 4500 5350 4600
Wire Wire Line
	5350 4600 5050 4600
Connection ~ 5350 4500
Wire Wire Line
	5050 4700 5350 4700
Wire Wire Line
	5350 4700 5350 4600
Connection ~ 5350 4600
Wire Wire Line
	5350 4700 5350 4800
Wire Wire Line
	5350 4800 5050 4800
Connection ~ 5350 4700
Wire Wire Line
	5050 4900 5350 4900
Wire Wire Line
	5350 4900 5350 4800
Connection ~ 5350 4800
Wire Wire Line
	5050 5000 5350 5000
Wire Wire Line
	5350 5000 5350 4900
Connection ~ 5350 4900
Wire Wire Line
	5050 5100 5350 5100
Wire Wire Line
	5350 5100 5350 5000
Connection ~ 5350 5000
Wire Wire Line
	5050 5200 5350 5200
Connection ~ 5350 5100
$Comp
L power:GND #PWR?
U 1 1 5BF343A3
P 5350 5300
F 0 "#PWR?" H 5350 5050 50  0001 C CNN
F 1 "GND" H 5355 5127 50  0000 C CNN
F 2 "" H 5350 5300 50  0001 C CNN
F 3 "" H 5350 5300 50  0001 C CNN
	1    5350 5300
	1    0    0    -1  
$EndComp
Wire Wire Line
	5350 5100 5350 5200
Connection ~ 5350 5200
Wire Wire Line
	5350 5200 5350 5300
Wire Wire Line
	2600 3800 3050 3800
Wire Wire Line
	2600 3800 2600 3900
Wire Wire Line
	2600 3900 3050 3900
Wire Wire Line
	2600 3900 2600 4000
Wire Wire Line
	2600 4000 3050 4000
Connection ~ 2600 3900
Wire Wire Line
	2600 4000 2600 4100
Wire Wire Line
	2600 4100 3050 4100
Connection ~ 2600 4000
Wire Wire Line
	2600 4100 2600 4200
Wire Wire Line
	2600 4200 3050 4200
Connection ~ 2600 4100
Wire Wire Line
	2600 4200 2600 4300
Wire Wire Line
	2600 4400 3050 4400
Connection ~ 2600 4200
Wire Wire Line
	2600 4400 2600 4500
Wire Wire Line
	2600 4600 3050 4600
Connection ~ 2600 4400
Wire Wire Line
	2600 4900 3050 4900
Connection ~ 2600 4600
Wire Wire Line
	3050 4800 2600 4800
Wire Wire Line
	2600 4600 2600 4700
Wire Wire Line
	2600 4800 2600 4900
Connection ~ 2600 4800
Wire Wire Line
	2600 4700 3050 4700
Wire Wire Line
	2600 4700 2600 4800
Connection ~ 2600 4700
Wire Wire Line
	3050 4500 2600 4500
Wire Wire Line
	2600 4500 2600 4600
Connection ~ 2600 4500
Wire Wire Line
	2600 4300 3050 4300
Wire Wire Line
	2600 4300 2600 4400
Connection ~ 2600 4300
Wire Wire Line
	2600 5000 3050 5000
Connection ~ 2600 4900
Wire Wire Line
	3050 5100 2600 5100
Wire Wire Line
	2600 4900 2600 5000
Connection ~ 2600 5000
Wire Wire Line
	2600 5000 2600 5100
Wire Wire Line
	3050 5200 2600 5200
Wire Wire Line
	2600 5200 2600 5100
Connection ~ 2600 5100
$Comp
L power:GND #PWR?
U 1 1 5BF4ECB0
P 2600 5300
F 0 "#PWR?" H 2600 5050 50  0001 C CNN
F 1 "GND" H 2605 5127 50  0000 C CNN
F 2 "" H 2600 5300 50  0001 C CNN
F 3 "" H 2600 5300 50  0001 C CNN
	1    2600 5300
	1    0    0    -1  
$EndComp
Wire Wire Line
	2600 5200 2600 5300
Connection ~ 2600 5200
$Comp
L power:+1V0 #PWR?
U 1 1 5BF5156D
P 5350 2500
F 0 "#PWR?" H 5350 2350 50  0001 C CNN
F 1 "+1V0" H 5365 2673 50  0000 C CNN
F 2 "" H 5350 2500 50  0001 C CNN
F 3 "" H 5350 2500 50  0001 C CNN
	1    5350 2500
	1    0    0    -1  
$EndComp
Wire Wire Line
	5350 2500 5350 2600
Connection ~ 5350 2600
Wire Wire Line
	3050 3400 2600 3400
Wire Wire Line
	2600 3400 2600 3500
Wire Wire Line
	2600 3500 3050 3500
$Comp
L power:+1V0 #PWR?
U 1 1 5BF5939E
P 2550 3400
F 0 "#PWR?" H 2550 3250 50  0001 C CNN
F 1 "+1V0" H 2565 3573 50  0000 C CNN
F 2 "" H 2550 3400 50  0001 C CNN
F 3 "" H 2550 3400 50  0001 C CNN
	1    2550 3400
	0    -1   -1   0   
$EndComp
$Comp
L power:GND #PWR?
U 1 1 5BF5C0FC
P 2550 3100
F 0 "#PWR?" H 2550 2850 50  0001 C CNN
F 1 "GND" H 2555 2927 50  0000 C CNN
F 2 "" H 2550 3100 50  0001 C CNN
F 3 "" H 2550 3100 50  0001 C CNN
	1    2550 3100
	0    1    1    0   
$EndComp
Wire Wire Line
	3050 2900 2600 2900
Wire Wire Line
	2600 2900 2600 2800
Wire Wire Line
	2600 2600 3050 2600
Wire Wire Line
	3050 2700 2600 2700
Connection ~ 2600 2700
Wire Wire Line
	2600 2700 2600 2600
Wire Wire Line
	2600 2800 3050 2800
Connection ~ 2600 2800
Wire Wire Line
	2600 2800 2600 2700
$Comp
L power:+1V8 #PWR?
U 1 1 5BF68890
P 2600 2500
F 0 "#PWR?" H 2600 2350 50  0001 C CNN
F 1 "+1V8" H 2615 2673 50  0000 C CNN
F 2 "" H 2600 2500 50  0001 C CNN
F 3 "" H 2600 2500 50  0001 C CNN
	1    2600 2500
	1    0    0    -1  
$EndComp
Wire Wire Line
	2600 2600 2600 2500
Connection ~ 2600 2600
Wire Wire Line
	3050 3200 2600 3200
Wire Wire Line
	3050 3300 2600 3300
Wire Wire Line
	2600 3300 2600 3200
Text Notes 6100 4250 0    157  ~ 0
Dont forget to add capacitors for sequencing\n
Text Notes 7450 7500 0    79   ~ 0
Power system
$Comp
L Device:C C?
U 1 1 5BF2AA3D
P 6150 5100
F 0 "C?" H 6050 5200 50  0000 L CNN
F 1 "10uF" H 5950 5000 50  0000 L CNN
F 2 "" H 6188 4950 50  0001 C CNN
F 3 "~" H 6150 5100 50  0001 C CNN
	1    6150 5100
	1    0    0    -1  
$EndComp
$Comp
L Device:C C?
U 1 1 5BF2AAE7
P 9000 1300
F 0 "C?" H 9115 1346 50  0000 L CNN
F 1 "0.1uF" H 9115 1255 50  0000 L CNN
F 2 "" H 9038 1150 50  0001 C CNN
F 3 "~" H 9000 1300 50  0001 C CNN
	1    9000 1300
	1    0    0    -1  
$EndComp
$Comp
L Device:C C?
U 1 1 5BF2AB2B
P 9450 1300
F 0 "C?" H 9565 1346 50  0000 L CNN
F 1 "10 uF" H 9565 1255 50  0000 L CNN
F 2 "" H 9488 1150 50  0001 C CNN
F 3 "~" H 9450 1300 50  0001 C CNN
	1    9450 1300
	1    0    0    -1  
$EndComp
$Comp
L Device:C C?
U 1 1 5BF2AB59
P 9900 1300
F 0 "C?" H 10015 1346 50  0000 L CNN
F 1 "47 uF" H 10015 1255 50  0000 L CNN
F 2 "" H 9938 1150 50  0001 C CNN
F 3 "~" H 9900 1300 50  0001 C CNN
	1    9900 1300
	1    0    0    -1  
$EndComp
Wire Wire Line
	9000 1150 9000 1100
Wire Wire Line
	9000 1100 9450 1100
Wire Wire Line
	9900 1100 9900 1150
Wire Wire Line
	9450 1150 9450 1100
Connection ~ 9450 1100
Wire Wire Line
	9450 1100 9900 1100
Wire Wire Line
	9000 1450 9000 1600
Wire Wire Line
	9000 1600 9450 1600
Wire Wire Line
	9900 1600 9900 1450
Wire Wire Line
	9450 1450 9450 1600
Connection ~ 9450 1600
Wire Wire Line
	9450 1600 9900 1600
$Comp
L power:GND #PWR?
U 1 1 5BF3EBA5
P 9450 1600
F 0 "#PWR?" H 9450 1350 50  0001 C CNN
F 1 "GND" H 9455 1427 50  0000 C CNN
F 2 "" H 9450 1600 50  0001 C CNN
F 3 "" H 9450 1600 50  0001 C CNN
	1    9450 1600
	1    0    0    -1  
$EndComp
$Comp
L power:+5V #PWR?
U 1 1 5BF3EBCD
P 9450 1050
F 0 "#PWR?" H 9450 900 50  0001 C CNN
F 1 "+5V" H 9465 1223 50  0000 C CNN
F 2 "" H 9450 1050 50  0001 C CNN
F 3 "" H 9450 1050 50  0001 C CNN
	1    9450 1050
	1    0    0    -1  
$EndComp
Wire Wire Line
	9450 1050 9450 1100
$Comp
L Device:C C?
U 1 1 5BF475CD
P 6400 5100
F 0 "C?" H 6300 5200 50  0000 L CNN
F 1 "1uF" H 6200 5000 50  0000 L CNN
F 2 "" H 6438 4950 50  0001 C CNN
F 3 "~" H 6400 5100 50  0001 C CNN
	1    6400 5100
	1    0    0    -1  
$EndComp
$Comp
L Device:C C?
U 1 1 5BF475FB
P 6650 5100
F 0 "C?" H 6550 5200 50  0000 L CNN
F 1 "0.1uF" H 6450 5000 50  0000 L CNN
F 2 "" H 6688 4950 50  0001 C CNN
F 3 "~" H 6650 5100 50  0001 C CNN
	1    6650 5100
	1    0    0    -1  
$EndComp
$Comp
L Device:C C?
U 1 1 5BF4762B
P 6900 5100
F 0 "C?" H 6800 5200 50  0000 L CNN
F 1 "0.1uF" H 6700 5000 50  0000 L CNN
F 2 "" H 6938 4950 50  0001 C CNN
F 3 "~" H 6900 5100 50  0001 C CNN
	1    6900 5100
	1    0    0    -1  
$EndComp
$Comp
L Device:C C?
U 1 1 5BF47665
P 7150 5100
F 0 "C?" H 7050 5200 50  0000 L CNN
F 1 "0.1uF" H 6950 5000 50  0000 L CNN
F 2 "" H 7188 4950 50  0001 C CNN
F 3 "~" H 7150 5100 50  0001 C CNN
	1    7150 5100
	1    0    0    -1  
$EndComp
$Comp
L Device:C C?
U 1 1 5BF47699
P 7400 5100
F 0 "C?" H 7300 5200 50  0000 L CNN
F 1 "0.1uF" H 7200 5000 50  0000 L CNN
F 2 "" H 7438 4950 50  0001 C CNN
F 3 "~" H 7400 5100 50  0001 C CNN
	1    7400 5100
	1    0    0    -1  
$EndComp
$Comp
L Device:C C?
U 1 1 5BF476D5
P 7650 5100
F 0 "C?" H 7550 5200 50  0000 L CNN
F 1 "0.1uF" H 7450 5000 50  0000 L CNN
F 2 "" H 7688 4950 50  0001 C CNN
F 3 "~" H 7650 5100 50  0001 C CNN
	1    7650 5100
	1    0    0    -1  
$EndComp
$Comp
L Device:C C?
U 1 1 5BF4770F
P 7900 5100
F 0 "C?" H 7800 5200 50  0000 L CNN
F 1 "0.1uF" H 7700 5000 50  0000 L CNN
F 2 "" H 7938 4950 50  0001 C CNN
F 3 "~" H 7900 5100 50  0001 C CNN
	1    7900 5100
	1    0    0    -1  
$EndComp
$Comp
L Device:C C?
U 1 1 5BF47755
P 8150 5100
F 0 "C?" H 8050 5200 50  0000 L CNN
F 1 "0.1uF" H 7950 5000 50  0000 L CNN
F 2 "" H 8188 4950 50  0001 C CNN
F 3 "~" H 8150 5100 50  0001 C CNN
	1    8150 5100
	1    0    0    -1  
$EndComp
$Comp
L Device:C C?
U 1 1 5BF47791
P 8400 5100
F 0 "C?" H 8300 5200 50  0000 L CNN
F 1 "0.1uF" H 8200 5000 50  0000 L CNN
F 2 "" H 8438 4950 50  0001 C CNN
F 3 "~" H 8400 5100 50  0001 C CNN
	1    8400 5100
	1    0    0    -1  
$EndComp
$Comp
L Device:C C?
U 1 1 5BF4BD74
P 8700 5100
F 0 "C?" H 8600 5200 50  0000 L CNN
F 1 "0.1uF" H 8500 5000 50  0000 L CNN
F 2 "" H 8738 4950 50  0001 C CNN
F 3 "~" H 8700 5100 50  0001 C CNN
	1    8700 5100
	1    0    0    -1  
$EndComp
$Comp
L Device:C C?
U 1 1 5BF4BD7B
P 8950 5100
F 0 "C?" H 8850 5200 50  0000 L CNN
F 1 "0.1uF" H 8750 5000 50  0000 L CNN
F 2 "" H 8988 4950 50  0001 C CNN
F 3 "~" H 8950 5100 50  0001 C CNN
	1    8950 5100
	1    0    0    -1  
$EndComp
$Comp
L Device:C C?
U 1 1 5BF4BD82
P 9200 5100
F 0 "C?" H 9100 5200 50  0000 L CNN
F 1 "0.1uF" H 9000 5000 50  0000 L CNN
F 2 "" H 9238 4950 50  0001 C CNN
F 3 "~" H 9200 5100 50  0001 C CNN
	1    9200 5100
	1    0    0    -1  
$EndComp
$Comp
L Device:C C?
U 1 1 5BF4BD89
P 9450 5100
F 0 "C?" H 9350 5200 50  0000 L CNN
F 1 "0.1uF" H 9250 5000 50  0000 L CNN
F 2 "" H 9488 4950 50  0001 C CNN
F 3 "~" H 9450 5100 50  0001 C CNN
	1    9450 5100
	1    0    0    -1  
$EndComp
$Comp
L Device:C C?
U 1 1 5BF4BD90
P 9700 5100
F 0 "C?" H 9600 5200 50  0000 L CNN
F 1 "0.1uF" H 9500 5000 50  0000 L CNN
F 2 "" H 9738 4950 50  0001 C CNN
F 3 "~" H 9700 5100 50  0001 C CNN
	1    9700 5100
	1    0    0    -1  
$EndComp
$Comp
L Device:C C?
U 1 1 5BF4BD97
P 9950 5100
F 0 "C?" H 9850 5200 50  0000 L CNN
F 1 "0.1uF" H 9750 5000 50  0000 L CNN
F 2 "" H 9988 4950 50  0001 C CNN
F 3 "~" H 9950 5100 50  0001 C CNN
	1    9950 5100
	1    0    0    -1  
$EndComp
$Comp
L Device:C C?
U 1 1 5BF4BD9E
P 10200 5100
F 0 "C?" H 10100 5200 50  0000 L CNN
F 1 "0.1uF" H 10000 5000 50  0000 L CNN
F 2 "" H 10238 4950 50  0001 C CNN
F 3 "~" H 10200 5100 50  0001 C CNN
	1    10200 5100
	1    0    0    -1  
$EndComp
$Comp
L Device:C C?
U 1 1 5BF4BDA5
P 10450 5100
F 0 "C?" H 10350 5200 50  0000 L CNN
F 1 "0.1uF" H 10250 5000 50  0000 L CNN
F 2 "" H 10488 4950 50  0001 C CNN
F 3 "~" H 10450 5100 50  0001 C CNN
	1    10450 5100
	1    0    0    -1  
$EndComp
$Comp
L Device:C C?
U 1 1 5BF4BDAC
P 10700 5100
F 0 "C?" H 10600 5200 50  0000 L CNN
F 1 "0.1uF" H 10500 5000 50  0000 L CNN
F 2 "" H 10738 4950 50  0001 C CNN
F 3 "~" H 10700 5100 50  0001 C CNN
	1    10700 5100
	1    0    0    -1  
$EndComp
$Comp
L Device:C C?
U 1 1 5BF4BDB3
P 10950 5100
F 0 "C?" H 10850 5200 50  0000 L CNN
F 1 "0.1uF" H 10750 5000 50  0000 L CNN
F 2 "" H 10988 4950 50  0001 C CNN
F 3 "~" H 10950 5100 50  0001 C CNN
	1    10950 5100
	1    0    0    -1  
$EndComp
Wire Wire Line
	6150 5250 6150 5350
Wire Wire Line
	10950 5350 10950 5250
Wire Wire Line
	10700 5250 10700 5350
Connection ~ 10700 5350
Wire Wire Line
	10700 5350 10950 5350
Wire Wire Line
	10450 5350 10450 5250
Connection ~ 10450 5350
Wire Wire Line
	10450 5350 10700 5350
Wire Wire Line
	10200 5250 10200 5350
Connection ~ 10200 5350
Wire Wire Line
	10200 5350 10450 5350
Wire Wire Line
	9950 5250 9950 5350
Wire Wire Line
	6150 5350 6400 5350
Connection ~ 9950 5350
Wire Wire Line
	9950 5350 10200 5350
Wire Wire Line
	9700 5250 9700 5350
Connection ~ 9700 5350
Wire Wire Line
	9700 5350 9950 5350
Wire Wire Line
	9450 5250 9450 5350
Connection ~ 9450 5350
Wire Wire Line
	9450 5350 9700 5350
Wire Wire Line
	9200 5250 9200 5350
Connection ~ 9200 5350
Wire Wire Line
	9200 5350 9450 5350
Wire Wire Line
	8950 5250 8950 5350
Connection ~ 8950 5350
Wire Wire Line
	8950 5350 9200 5350
Wire Wire Line
	8700 5250 8700 5350
Connection ~ 8700 5350
Wire Wire Line
	8700 5350 8950 5350
Wire Wire Line
	8400 5250 8400 5350
Connection ~ 8400 5350
Wire Wire Line
	8400 5350 8700 5350
Wire Wire Line
	8150 5250 8150 5350
Connection ~ 8150 5350
Wire Wire Line
	8150 5350 8400 5350
Wire Wire Line
	7900 5250 7900 5350
Connection ~ 7900 5350
Wire Wire Line
	7900 5350 8150 5350
Wire Wire Line
	7650 5250 7650 5350
Connection ~ 7650 5350
Wire Wire Line
	7650 5350 7900 5350
Wire Wire Line
	7400 5250 7400 5350
Connection ~ 7400 5350
Wire Wire Line
	7400 5350 7650 5350
Wire Wire Line
	7150 5250 7150 5350
Connection ~ 7150 5350
Wire Wire Line
	7150 5350 7400 5350
Wire Wire Line
	6900 5250 6900 5350
Connection ~ 6900 5350
Wire Wire Line
	6900 5350 7150 5350
Wire Wire Line
	6650 5250 6650 5350
Connection ~ 6650 5350
Wire Wire Line
	6650 5350 6900 5350
Wire Wire Line
	6400 5250 6400 5350
Connection ~ 6400 5350
Wire Wire Line
	6400 5350 6650 5350
Wire Wire Line
	6150 4950 6150 4850
Wire Wire Line
	10950 4850 10950 4950
Wire Wire Line
	10700 4950 10700 4850
Connection ~ 10700 4850
Wire Wire Line
	10700 4850 10950 4850
Wire Wire Line
	10450 4950 10450 4850
Connection ~ 10450 4850
Wire Wire Line
	10450 4850 10700 4850
Wire Wire Line
	10200 4850 10200 4950
Connection ~ 10200 4850
Wire Wire Line
	10200 4850 10450 4850
Wire Wire Line
	9950 4950 9950 4850
Connection ~ 9950 4850
Wire Wire Line
	9950 4850 10200 4850
Wire Wire Line
	9700 4850 9700 4950
Connection ~ 9700 4850
Wire Wire Line
	9700 4850 9950 4850
Wire Wire Line
	9450 4850 9450 4950
Connection ~ 9450 4850
Wire Wire Line
	9450 4850 9700 4850
Wire Wire Line
	9200 4850 9200 4950
Connection ~ 9200 4850
Wire Wire Line
	9200 4850 9450 4850
Wire Wire Line
	8950 4950 8950 4850
Connection ~ 8950 4850
Wire Wire Line
	8950 4850 9200 4850
Wire Wire Line
	8700 4950 8700 4850
Connection ~ 8700 4850
Wire Wire Line
	8700 4850 8950 4850
Wire Wire Line
	8400 4950 8400 4850
Connection ~ 8400 4850
Wire Wire Line
	8400 4850 8700 4850
Wire Wire Line
	8150 4950 8150 4850
Wire Wire Line
	6150 4850 6400 4850
Connection ~ 8150 4850
Wire Wire Line
	8150 4850 8400 4850
Wire Wire Line
	7900 4850 7900 4950
Connection ~ 7900 4850
Wire Wire Line
	7900 4850 8150 4850
Wire Wire Line
	7650 4850 7650 4950
Connection ~ 7650 4850
Wire Wire Line
	7650 4850 7900 4850
Wire Wire Line
	7400 4850 7400 4950
Connection ~ 7400 4850
Wire Wire Line
	7400 4850 7650 4850
Wire Wire Line
	7150 4850 7150 4950
Connection ~ 7150 4850
Wire Wire Line
	7150 4850 7400 4850
Wire Wire Line
	6900 4850 6900 4950
Connection ~ 6900 4850
Wire Wire Line
	6900 4850 7150 4850
Wire Wire Line
	6650 4850 6650 4950
Connection ~ 6650 4850
Wire Wire Line
	6650 4850 6900 4850
Wire Wire Line
	6400 4850 6400 4950
Connection ~ 6400 4850
Wire Wire Line
	6400 4850 6650 4850
$Comp
L power:+3.3V #PWR?
U 1 1 5C04F083
P 8400 4700
F 0 "#PWR?" H 8400 4550 50  0001 C CNN
F 1 "+3.3V" H 8415 4873 50  0000 C CNN
F 2 "" H 8400 4700 50  0001 C CNN
F 3 "" H 8400 4700 50  0001 C CNN
	1    8400 4700
	1    0    0    -1  
$EndComp
Wire Wire Line
	8400 4700 8400 4850
$Comp
L power:GND #PWR?
U 1 1 5C059208
P 8400 5450
F 0 "#PWR?" H 8400 5200 50  0001 C CNN
F 1 "GND" H 8405 5277 50  0000 C CNN
F 2 "" H 8400 5450 50  0001 C CNN
F 3 "" H 8400 5450 50  0001 C CNN
	1    8400 5450
	1    0    0    -1  
$EndComp
Wire Wire Line
	8400 5450 8400 5350
$Comp
L Device:C C?
U 1 1 5C063445
P 2300 6300
F 0 "C?" H 2200 6400 50  0000 L CNN
F 1 "10uF" H 2100 6200 50  0000 L CNN
F 2 "" H 2338 6150 50  0001 C CNN
F 3 "~" H 2300 6300 50  0001 C CNN
	1    2300 6300
	1    0    0    -1  
$EndComp
$Comp
L Device:C C?
U 1 1 5C06344C
P 2550 6300
F 0 "C?" H 2450 6400 50  0000 L CNN
F 1 "1uF" H 2350 6200 50  0000 L CNN
F 2 "" H 2588 6150 50  0001 C CNN
F 3 "~" H 2550 6300 50  0001 C CNN
	1    2550 6300
	1    0    0    -1  
$EndComp
$Comp
L Device:C C?
U 1 1 5C063453
P 2800 6300
F 0 "C?" H 2700 6400 50  0000 L CNN
F 1 "0.1uF" H 2600 6200 50  0000 L CNN
F 2 "" H 2838 6150 50  0001 C CNN
F 3 "~" H 2800 6300 50  0001 C CNN
	1    2800 6300
	1    0    0    -1  
$EndComp
$Comp
L Device:C C?
U 1 1 5C06345A
P 3050 6300
F 0 "C?" H 2950 6400 50  0000 L CNN
F 1 "0.1uF" H 2850 6200 50  0000 L CNN
F 2 "" H 3088 6150 50  0001 C CNN
F 3 "~" H 3050 6300 50  0001 C CNN
	1    3050 6300
	1    0    0    -1  
$EndComp
$Comp
L Device:C C?
U 1 1 5C063461
P 3300 6300
F 0 "C?" H 3200 6400 50  0000 L CNN
F 1 "0.1uF" H 3100 6200 50  0000 L CNN
F 2 "" H 3338 6150 50  0001 C CNN
F 3 "~" H 3300 6300 50  0001 C CNN
	1    3300 6300
	1    0    0    -1  
$EndComp
$Comp
L Device:C C?
U 1 1 5C063468
P 3550 6300
F 0 "C?" H 3450 6400 50  0000 L CNN
F 1 "0.1uF" H 3350 6200 50  0000 L CNN
F 2 "" H 3588 6150 50  0001 C CNN
F 3 "~" H 3550 6300 50  0001 C CNN
	1    3550 6300
	1    0    0    -1  
$EndComp
$Comp
L Device:C C?
U 1 1 5C06346F
P 3800 6300
F 0 "C?" H 3700 6400 50  0000 L CNN
F 1 "0.1uF" H 3600 6200 50  0000 L CNN
F 2 "" H 3838 6150 50  0001 C CNN
F 3 "~" H 3800 6300 50  0001 C CNN
	1    3800 6300
	1    0    0    -1  
$EndComp
Wire Wire Line
	2300 6450 2300 6550
Wire Wire Line
	2300 6550 2550 6550
Wire Wire Line
	3800 6450 3800 6550
Wire Wire Line
	3550 6450 3550 6550
Connection ~ 3550 6550
Wire Wire Line
	3550 6550 3800 6550
Wire Wire Line
	3300 6450 3300 6550
Connection ~ 3300 6550
Wire Wire Line
	3300 6550 3550 6550
Wire Wire Line
	3050 6450 3050 6550
Connection ~ 3050 6550
Wire Wire Line
	3050 6550 3300 6550
Wire Wire Line
	2800 6450 2800 6550
Connection ~ 2800 6550
Wire Wire Line
	2800 6550 3050 6550
Wire Wire Line
	2550 6450 2550 6550
Connection ~ 2550 6550
Wire Wire Line
	2550 6550 2800 6550
Wire Wire Line
	2300 6150 2300 6050
Wire Wire Line
	2300 6050 2550 6050
Wire Wire Line
	3800 6050 3800 6150
Wire Wire Line
	3550 6050 3550 6150
Connection ~ 3550 6050
Wire Wire Line
	3550 6050 3800 6050
Wire Wire Line
	3300 6050 3300 6150
Connection ~ 3300 6050
Wire Wire Line
	3300 6050 3550 6050
Wire Wire Line
	3050 6050 3050 6150
Connection ~ 3050 6050
Wire Wire Line
	3050 6050 3300 6050
Wire Wire Line
	2800 6050 2800 6150
Connection ~ 2800 6050
Wire Wire Line
	2800 6050 3050 6050
Wire Wire Line
	2550 6050 2550 6150
Connection ~ 2550 6050
Wire Wire Line
	2550 6050 2800 6050
$Comp
L Device:C C?
U 1 1 5C071488
P 4600 6300
F 0 "C?" H 4500 6400 50  0000 L CNN
F 1 "10uF" H 4400 6200 50  0000 L CNN
F 2 "" H 4638 6150 50  0001 C CNN
F 3 "~" H 4600 6300 50  0001 C CNN
	1    4600 6300
	1    0    0    -1  
$EndComp
$Comp
L Device:C C?
U 1 1 5C07148F
P 4850 6300
F 0 "C?" H 4750 6400 50  0000 L CNN
F 1 "1uF" H 4650 6200 50  0000 L CNN
F 2 "" H 4888 6150 50  0001 C CNN
F 3 "~" H 4850 6300 50  0001 C CNN
	1    4850 6300
	1    0    0    -1  
$EndComp
$Comp
L Device:C C?
U 1 1 5C071496
P 5100 6300
F 0 "C?" H 5000 6400 50  0000 L CNN
F 1 "0.1uF" H 4900 6200 50  0000 L CNN
F 2 "" H 5138 6150 50  0001 C CNN
F 3 "~" H 5100 6300 50  0001 C CNN
	1    5100 6300
	1    0    0    -1  
$EndComp
$Comp
L Device:C C?
U 1 1 5C07149D
P 5350 6300
F 0 "C?" H 5250 6400 50  0000 L CNN
F 1 "0.1uF" H 5150 6200 50  0000 L CNN
F 2 "" H 5388 6150 50  0001 C CNN
F 3 "~" H 5350 6300 50  0001 C CNN
	1    5350 6300
	1    0    0    -1  
$EndComp
$Comp
L Device:C C?
U 1 1 5C0714A4
P 5600 6300
F 0 "C?" H 5500 6400 50  0000 L CNN
F 1 "0.1uF" H 5400 6200 50  0000 L CNN
F 2 "" H 5638 6150 50  0001 C CNN
F 3 "~" H 5600 6300 50  0001 C CNN
	1    5600 6300
	1    0    0    -1  
$EndComp
$Comp
L Device:C C?
U 1 1 5C0714AB
P 5850 6300
F 0 "C?" H 5750 6400 50  0000 L CNN
F 1 "0.1uF" H 5650 6200 50  0000 L CNN
F 2 "" H 5888 6150 50  0001 C CNN
F 3 "~" H 5850 6300 50  0001 C CNN
	1    5850 6300
	1    0    0    -1  
$EndComp
$Comp
L Device:C C?
U 1 1 5C0714B2
P 6100 6300
F 0 "C?" H 6000 6400 50  0000 L CNN
F 1 "0.1uF" H 5900 6200 50  0000 L CNN
F 2 "" H 6138 6150 50  0001 C CNN
F 3 "~" H 6100 6300 50  0001 C CNN
	1    6100 6300
	1    0    0    -1  
$EndComp
Wire Wire Line
	4600 6450 4600 6550
Wire Wire Line
	4600 6550 4850 6550
Wire Wire Line
	6100 6450 6100 6550
Wire Wire Line
	5850 6450 5850 6550
Connection ~ 5850 6550
Wire Wire Line
	5850 6550 6100 6550
Wire Wire Line
	5600 6450 5600 6550
Connection ~ 5600 6550
Wire Wire Line
	5600 6550 5850 6550
Wire Wire Line
	5350 6450 5350 6550
Connection ~ 5350 6550
Wire Wire Line
	5350 6550 5600 6550
Wire Wire Line
	5100 6450 5100 6550
Connection ~ 5100 6550
Wire Wire Line
	5100 6550 5350 6550
Wire Wire Line
	4850 6450 4850 6550
Connection ~ 4850 6550
Wire Wire Line
	4850 6550 5100 6550
Wire Wire Line
	4600 6150 4600 6050
Wire Wire Line
	4600 6050 4850 6050
Wire Wire Line
	6100 6050 6100 6150
Wire Wire Line
	5850 6050 5850 6150
Connection ~ 5850 6050
Wire Wire Line
	5850 6050 6100 6050
Wire Wire Line
	5600 6050 5600 6150
Connection ~ 5600 6050
Wire Wire Line
	5600 6050 5850 6050
Wire Wire Line
	5350 6050 5350 6150
Connection ~ 5350 6050
Wire Wire Line
	5350 6050 5600 6050
Wire Wire Line
	5100 6050 5100 6150
Connection ~ 5100 6050
Wire Wire Line
	5100 6050 5350 6050
Wire Wire Line
	4850 6050 4850 6150
Connection ~ 4850 6050
Wire Wire Line
	4850 6050 5100 6050
$Comp
L power:GND #PWR?
U 1 1 5C0831E6
P 4850 6650
F 0 "#PWR?" H 4850 6400 50  0001 C CNN
F 1 "GND" H 4855 6477 50  0000 C CNN
F 2 "" H 4850 6650 50  0001 C CNN
F 3 "" H 4850 6650 50  0001 C CNN
	1    4850 6650
	1    0    0    -1  
$EndComp
$Comp
L power:GND #PWR?
U 1 1 5C0832D8
P 2550 6650
F 0 "#PWR?" H 2550 6400 50  0001 C CNN
F 1 "GND" H 2555 6477 50  0000 C CNN
F 2 "" H 2550 6650 50  0001 C CNN
F 3 "" H 2550 6650 50  0001 C CNN
	1    2550 6650
	1    0    0    -1  
$EndComp
$Comp
L power:+1V0 #PWR?
U 1 1 5C0A6275
P 4850 5950
F 0 "#PWR?" H 4850 5800 50  0001 C CNN
F 1 "+1V0" H 4865 6123 50  0000 C CNN
F 2 "" H 4850 5950 50  0001 C CNN
F 3 "" H 4850 5950 50  0001 C CNN
	1    4850 5950
	1    0    0    -1  
$EndComp
$Comp
L power:+1V8 #PWR?
U 1 1 5C0A62D8
P 2550 5950
F 0 "#PWR?" H 2550 5800 50  0001 C CNN
F 1 "+1V8" H 2565 6123 50  0000 C CNN
F 2 "" H 2550 5950 50  0001 C CNN
F 3 "" H 2550 5950 50  0001 C CNN
	1    2550 5950
	1    0    0    -1  
$EndComp
Wire Wire Line
	2550 6650 2550 6550
Wire Wire Line
	2550 5950 2550 6050
Wire Wire Line
	4850 6050 4850 5950
Wire Wire Line
	4850 6650 4850 6550
$Comp
L Device:L L?
U 1 1 5BF9E956
P 1900 3050
F 0 "L?" H 1953 3096 50  0000 L CNN
F 1 "L" H 1953 3005 50  0000 L CNN
F 2 "" H 1900 3050 50  0001 C CNN
F 3 "~" H 1900 3050 50  0001 C CNN
	1    1900 3050
	1    0    0    -1  
$EndComp
Wire Wire Line
	1900 3200 2600 3200
Connection ~ 2600 3200
Wire Wire Line
	1900 2900 2600 2900
Connection ~ 2600 2900
$Comp
L Device:C C?
U 1 1 5BFD4FDE
P 1900 3350
F 0 "C?" H 2015 3396 50  0000 L CNN
F 1 "100nF" H 2015 3305 50  0000 L CNN
F 2 "" H 1938 3200 50  0001 C CNN
F 3 "~" H 1900 3350 50  0001 C CNN
	1    1900 3350
	1    0    0    -1  
$EndComp
Connection ~ 1900 3200
$Comp
L power:GND #PWR?
U 1 1 5BFD506A
P 1900 3500
F 0 "#PWR?" H 1900 3250 50  0001 C CNN
F 1 "GND" H 1905 3327 50  0000 C CNN
F 2 "" H 1900 3500 50  0001 C CNN
F 3 "" H 1900 3500 50  0001 C CNN
	1    1900 3500
	1    0    0    -1  
$EndComp
Wire Wire Line
	2550 3400 2600 3400
Connection ~ 2600 3400
Wire Wire Line
	2550 3100 3050 3100
$Comp
L Connector_Generic:Conn_01x05 J?
U 1 1 5C1C1983
P 5700 1100
F 0 "J?" H 5780 1142 50  0000 L CNN
F 1 "3.3" H 5780 1051 50  0000 L CNN
F 2 "" H 5700 1100 50  0001 C CNN
F 3 "~" H 5700 1100 50  0001 C CNN
	1    5700 1100
	1    0    0    -1  
$EndComp
$Comp
L Connector_Generic:Conn_01x05 J?
U 1 1 5C1C1A37
P 5550 4100
F 0 "J?" H 5629 4142 50  0000 L CNN
F 1 "GND" H 5629 4051 50  0000 L CNN
F 2 "" H 5550 4100 50  0001 C CNN
F 3 "~" H 5550 4100 50  0001 C CNN
	1    5550 4100
	1    0    0    -1  
$EndComp
Wire Wire Line
	5350 3100 5350 3000
Wire Wire Line
	5350 3000 5350 2900
Connection ~ 5350 3000
Wire Wire Line
	5350 2900 5350 2800
Connection ~ 5350 2900
Wire Wire Line
	5350 2800 5350 2700
Connection ~ 5350 2800
Connection ~ 5350 2700
Wire Wire Line
	5500 900  5400 900 
Wire Wire Line
	5400 900  5400 1000
Wire Wire Line
	5400 1000 5500 1000
Wire Wire Line
	4500 1100 5400 1100
Wire Wire Line
	5400 1000 5400 1100
Wire Wire Line
	5400 1100 5500 1100
Connection ~ 5400 1000
Wire Wire Line
	5400 1100 5400 1200
Wire Wire Line
	5400 1200 5500 1200
Connection ~ 5400 1100
Wire Wire Line
	5400 1200 5400 1300
Wire Wire Line
	5400 1300 5500 1300
Connection ~ 5400 1200
$Comp
L power:+VDC #PWR?
U 1 1 5C0239ED
P 4500 1050
F 0 "#PWR?" H 4500 950 50  0001 C CNN
F 1 "+VDC" H 4500 1325 50  0000 C CNN
F 2 "" H 4500 1050 50  0001 C CNN
F 3 "" H 4500 1050 50  0001 C CNN
	1    4500 1050
	1    0    0    -1  
$EndComp
Text Notes 6550 3750 0    157  ~ 0
Add other regulator for 1.0V rail\n
$Comp
L Special:BDxxIC0WEFJ U?
U 1 1 5CA9095E
P 7250 2750
F 0 "U?" H 7175 3265 50  0000 C CNN
F 1 "BDxxIC0WEFJ" H 7175 3174 50  0000 C CNN
F 2 "" H 7250 2800 50  0001 C CNN
F 3 "" H 7250 2800 50  0001 C CNN
	1    7250 2750
	1    0    0    -1  
$EndComp
$Comp
L power:GND #PWR?
U 1 1 5CA92FC6
P 6250 3100
F 0 "#PWR?" H 6250 2850 50  0001 C CNN
F 1 "GND" H 6255 2927 50  0000 C CNN
F 2 "" H 6250 3100 50  0001 C CNN
F 3 "" H 6250 3100 50  0001 C CNN
	1    6250 3100
	1    0    0    -1  
$EndComp
Wire Wire Line
	6500 2700 6250 2700
$Comp
L power:+5V #PWR?
U 1 1 5CAAC267
P 8050 2350
F 0 "#PWR?" H 8050 2200 50  0001 C CNN
F 1 "+5V" H 8065 2523 50  0000 C CNN
F 2 "" H 8050 2350 50  0001 C CNN
F 3 "" H 8050 2350 50  0001 C CNN
	1    8050 2350
	1    0    0    -1  
$EndComp
Wire Wire Line
	7850 2800 8050 2800
Wire Wire Line
	7850 2500 8050 2500
$Comp
L Device:C_Small C?
U 1 1 5CB15CF8
P 6250 2600
F 0 "C?" H 6365 2646 50  0000 L CNN
F 1 "10 uF" H 6365 2555 50  0000 L CNN
F 2 "" H 6288 2450 50  0001 C CNN
F 3 "~" H 6250 2600 50  0001 C CNN
	1    6250 2600
	1    0    0    -1  
$EndComp
Wire Wire Line
	6500 2500 6400 2500
Wire Wire Line
	6500 2600 6400 2600
Wire Wire Line
	6400 2600 6400 2500
Connection ~ 6400 2500
$Comp
L power:+1V0 #PWR?
U 1 1 5CCAEDB3
P 6400 2350
F 0 "#PWR?" H 6400 2200 50  0001 C CNN
F 1 "+1V0" H 6415 2523 50  0000 C CNN
F 2 "" H 6400 2350 50  0001 C CNN
F 3 "" H 6400 2350 50  0001 C CNN
	1    6400 2350
	1    0    0    -1  
$EndComp
Wire Wire Line
	6400 2350 6400 2500
Wire Wire Line
	6250 2500 6400 2500
Connection ~ 6250 2700
Wire Wire Line
	6250 2700 6250 3000
$Comp
L Device:C_Small C?
U 1 1 5CD702EE
P 8050 2900
F 0 "C?" H 8142 2946 50  0000 L CNN
F 1 "10 uF" H 8142 2855 50  0000 L CNN
F 2 "" H 8050 2900 50  0001 C CNN
F 3 "~" H 8050 2900 50  0001 C CNN
	1    8050 2900
	1    0    0    -1  
$EndComp
Connection ~ 8050 2800
NoConn ~ 7250 3050
Wire Wire Line
	7150 3000 6250 3000
Connection ~ 6250 3000
Wire Wire Line
	7150 3000 7150 3150
Wire Wire Line
	6250 3000 6250 3100
Wire Wire Line
	7350 3150 7350 3000
Wire Wire Line
	7350 3150 7150 3150
Wire Wire Line
	7350 3000 8050 3000
Wire Wire Line
	8050 2800 8050 2500
Wire Wire Line
	8050 2350 8050 2500
Connection ~ 8050 2500
$EndSCHEMATC
